
{"cities":[
  {"name":"Abbeville"},{"name":"Abernant"},{"name":"Adamsville"},{"name":"Addison"},{"name":"Adger"},{"name":"Akron"},{"name":"Alabaster"},{"name":"Alberta"},{"name":"Albertville"},{"name":"Alexander City"},{"name":"Alexandria"},{"name":"Aliceville"},{"name":"Allen"},{"name":"Allgood"},{"name":"Alma"},{"name":"Alpine"},{"name":"Alton"},{"name":"Altoona"},{"name":"Andalusia"},{"name":"Anderson"},{"name":"Annemanie"},{"name":"Anniston"},{"name":"Arab"},{"name":"Ardmore"},{"name":"Ariton"},{"name":"Arley"},{"name":"Arlington"},{"name":"Ashford"},{"name":"Ashland"},{"name":"Ashville"},{"name":"Athens"},{"name":"Atmore"},{"name":"Attalla"},{"name":"Auburn"},{"name":"Autaugaville"},{"name":"Axis"},{"name":"Baileyton"},{"name":"Baker Hill"},{"name":"Banks"},{"name":"Bankston"},{"name":"Bay Minette"},{"name":"Bayou la Batre"},{"name":"Bear Creek"},{"name":"Beatrice"},{"name":"Beaverton"},{"name":"Belk"},{"name":"Bellamy"},{"name":"Belle Mina"},{"name":"Bellwood"},{"name":"Berry"},{"name":"Bessemer"},{"name":"Bigbee"},{"name":"Billingsley"},{"name":"Birmingham"},{"name":"Black"},{"name":"Blountsville"},{"name":"Boaz"},{"name":"Boligee"},{"name":"Bon Air"},{"name":"Bon Secour"},{"name":"Booth"},{"name":"Boykin"},{"name":"Brantley"},{"name":"Bremen"},{"name":"Brent"},{"name":"Brewton"},{"name":"Bridgeport"},{"name":"Brierfield"},{"name":"Brilliant"},{"name":"Brooklyn"},{"name":"Brookside"},{"name":"Brookwood"},{"name":"Brownsboro"},{"name":"Brundidge"},{"name":"Bryant"},{"name":"Bucks"},{"name":"Buhl"},{"name":"Burnt Corn"},{"name":"Burnwell"},{"name":"Butler"},{"name":"Bynum"},{"name":"Calera"},{"name":"Calvert"},{"name":"Camden"},{"name":"Campbell"},{"name":"Camp Hill"},{"name":"Capshaw"},{"name":"Carbon Hill"},{"name":"Cardiff"},{"name":"Carlton"},{"name":"Carrollton"},{"name":"Castleberry"},{"name":"Catherine"},{"name":"Cecil"},{"name":"Cedar Bluff"},{"name":"Centre"},{"name":"Centreville"},{"name":"Chancellor"},{"name":"Chapman"},{"name":"Chatom"},{"name":"Chelsea"},{"name":"Cherokee"},{"name":"Chickasaw"},{"name":"Childersburg"},{"name":"Choccolocco"},{"name":"Chunchula"},{"name":"Citronelle"},{"name":"Clanton"},{"name":"Clay"},{"name":"Clayton"},{"name":"Cleveland"},{"name":"Clinton"},{"name":"Clio"},{"name":"Clopton"},{"name":"Cloverdale"},{"name":"Coaling"},{"name":"Coden"},{"name":"Coffee Springs"},{"name":"Coffeeville"},{"name":"Coker"},{"name":"Collinsville"},{"name":"Columbia"},{"name":"Columbiana"},{"name":"Cook Springs"},{"name":"Coosada"},{"name":"Cordova"},{"name":"Cottondale"},{"name":"Cottonton"},{"name":"Cottonwood"},{"name":"Courtland"},{"name":"Cowarts"},{"name":"Coy"},{"name":"Cragford"},{"name":"Crane Hill"},{"name":"Creola"},{"name":"Cromwell"},{"name":"Cropwell"},{"name":"Crossville"},{"name":"Cuba"},{"name":"Cullman"},{"name":"Cusseta"},{"name":"Dadeville"},{"name":"Daleville"},{"name":"Danville"},{"name":"Daphne"},{"name":"Dauphin Island"},{"name":"Daviston"},{"name":"Dawson"},{"name":"Dayton"},{"name":"DeArmanville"},{"name":"Deatsville"},{"name":"Decatur"},{"name":"Deer Park"},{"name":"Delmar"},{"name":"Delta"},{"name":"Demopolis"},{"name":"Detroit"},{"name":"Dickinson"},{"name":"Dixons Mills"},{"name":"Docena"},{"name":"Dolomite"},{"name":"Dora"},{"name":"Dothan"},{"name":"Double Springs"},{"name":"Douglas"},{"name":"Dozier"},{"name":"Duncanville"},{"name":"Dutton"},{"name":"Eastaboga"},{"name":"East Tallassee"},{"name":"Echola"},{"name":"Eclectic"},{"name":"Edwardsville"},{"name":"Eight Mile"},{"name":"Elba"},{"name":"Elberta"},{"name":"Eldridge"},{"name":"Elkmont"},{"name":"Elmore"},{"name":"Elrod"},{"name":"Emelle"},{"name":"Empire"},{"name":"Enterprise"},{"name":"Epes"},{"name":"Equality"},{"name":"Estillfork"},{"name":"Ethelsville"},{"name":"Eufaula"},{"name":"Eutaw"},{"name":"Eva"},{"name":"Evergreen"},{"name":"Excel"},{"name":"Fackler"},{"name":"Fairfield"},{"name":"Fairhope"},{"name":"Falkville"},{"name":"Faunsdale"},{"name":"Fayette"},{"name":"Fitzpatrick"},{"name":"Five Points"},{"name":"Flat Rock"},{"name":"Flomaton"},{"name":"Florala"},{"name":"Florence"},{"name":"Foley"},{"name":"Forest Home"},{"name":"Forkland"},{"name":"Fort Davis"},{"name":"Fort Deposit"},{"name":"Fort McClellan"},{"name":"Fort Mitchell"},{"name":"Fort Payne"},{"name":"Fort Rucker"},{"name":"Fosters"},{"name":"Franklin"},{"name":"Frankville"},{"name":"Frisco City"},{"name":"Fruitdale"},{"name":"Fruithurst"},{"name":"Fulton"},{"name":"Fultondale"},{"name":"Furman"},{"name":"Fyffe"},{"name":"Gadsden"},{"name":"Gainestown"},{"name":"Gainesville"},{"name":"Gallant"},{"name":"Gallion"},{"name":"Gantt"},{"name":"Garden City"},{"name":"Gardendale"},{"name":"Gaylesville"},{"name":"Geneva"},{"name":"Georgiana"},{"name":"Geraldine"},{"name":"Gilbertown"},{"name":"Glen Allen"},{"name":"Glenwood"},{"name":"Goodsprings"},{"name":"Goodwater"},{"name":"Goodway"},{"name":"Gordo"},{"name":"Gordon"},{"name":"Goshen"},{"name":"Grady"},{"name":"Graham"},{"name":"Grand Bay"},{"name":"Grant"},{"name":"Graysville"},{"name":"Green Pond"},{"name":"Greensboro"},{"name":"Greenville"},{"name":"Grove Hill"},{"name":"Groveoak"},{"name":"Guin"},{"name":"Gulf Shores"},{"name":"Gunter AFB"},{"name":"Guntersville"},{"name":"Gurley"},{"name":"Hackleburg"},{"name":"Haleyville"},{"name":"Hamilton"},{"name":"Hanceville"},{"name":"Hardaway"},{"name":"Harpersville"},{"name":"Hartford"},{"name":"Hartselle"},{"name":"Harvest"},{"name":"Hatchechubbee"},{"name":"Hayden"},{"name":"Hayneville"},{"name":"Hazel Green"},{"name":"Headland"},{"name":"Heflin"},{"name":"Helena"},{"name":"Henagar"},{"name":"Higdon"},{"name":"Highland Home"},{"name":"Hillsboro"},{"name":"Hodges"},{"name":"Hollins"},{"name":"Holly Pond"},{"name":"Hollytree"},{"name":"Hollywood"},{"name":"Holy Trinity"},{"name":"Honoraville"},{"name":"Hope Hull"},{"name":"Horton"},{"name":"Houston"},{"name":"Hueytown"},{"name":"Huntsville"},{"name":"Hurtsboro"},{"name":"Huxford"},{"name":"Ider"},{"name":"Irvington"},{"name":"Jachin"},{"name":"Jack"},{"name":"Jackson"},{"name":"Jacksons Gap"},{"name":"Jacksonville"},{"name":"Jasper"},{"name":"Jefferson"},{"name":"Jemison"},{"name":"Jones"},{"name":"Joppa"},{"name":"Kansas"},{"name":"Kellerman"},{"name":"Kellyton"},{"name":"Kennedy"},{"name":"Kent"},{"name":"Killen"},{"name":"Kimberly"},{"name":"Kinston"},{"name":"Knoxville"},{"name":"Laceys Spring"},{"name":"Lafayette"},{"name":"Lamison"},{"name":"Lanett"},{"name":"Langston"},{"name":"Lapine"},{"name":"Lawley"},{"name":"Leeds"},{"name":"Leesburg"},{"name":"Leighton"},{"name":"Lenox"},{"name":"Leroy"},{"name":"Lester"},{"name":"Letohatchee"},{"name":"Lexington"},{"name":"Lillian"},{"name":"Lincoln"},{"name":"Linden"},{"name":"Lineville"},{"name":"Lisman"},{"name":"Little River"},{"name":"Livingston"},{"name":"Loachapoka"},{"name":"Lockhart"},{"name":"Locust Fork"},{"name":"Logan"},{"name":"Louisville"},{"name":"Lower Peach Tree"},{"name":"Lowndesboro"},{"name":"Loxley"},{"name":"Luverne"},{"name":"Lynn"},{"name":"Madison"},{"name":"Magnolia"},{"name":"Magnolia Springs"},{"name":"Malcolm"},{"name":"Malvern"},{"name":"Maplesville"},{"name":"Marbury"},{"name":"Margaret"},{"name":"Marion"},{"name":"Marion Junction"},{"name":"Mathews"},{"name":"Maxwell AFB"},{"name":"Maylene"},{"name":"McCalla"},{"name":"McIntosh"},{"name":"McKenzie"},{"name":"McShan"},{"name":"McWilliams"},{"name":"Megargel"},{"name":"Melvin"},{"name":"Mentone"},{"name":"Meridianville"},{"name":"Mexia"},{"name":"Midfield"},{"name":"Midland City"},{"name":"Midway"},{"name":"Millbrook"},{"name":"Millers Ferry"},{"name":"Millerville"},{"name":"Millport"},{"name":"Millry"},{"name":"Minter"},{"name":"Mobile"},{"name":"Monroeville"},{"name":"Montevallo"},{"name":"Montgomery"},{"name":"Montrose"},{"name":"Moody"},{"name":"Mooresville"},{"name":"Morris"},{"name":"Morvin"},{"name":"Moulton"},{"name":"Moundville"},{"name":"Mount Hope"},{"name":"Mount Meigs"},{"name":"Mount Olive"},{"name":"Mount Vernon"},{"name":"Mulga"},{"name":"Munford"},{"name":"Muscadine"},{"name":"Muscle Shoals"},{"name":"Myrtlewood"},{"name":"Nanafalia"},{"name":"Natural Bridge"},{"name":"Nauvoo"},{"name":"Needham"},{"name":"Newbern"},{"name":"New Brockton"},{"name":"New Castle"},{"name":"Newell"},{"name":"New Hope"},{"name":"New Market"},{"name":"Newton"},{"name":"Newville"},{"name":"Normal"},{"name":"Northport"},{"name":"Notasulga"},{"name":"Oak Hill"},{"name":"Oakman"},{"name":"Odenville"},{"name":"Ohatchee"},{"name":"Oneonta"},{"name":"Opelika"},{"name":"Opp"},{"name":"Orange Beach"},{"name":"Orrville"},{"name":"Owens Cross Roads"},{"name":"Oxford"},{"name":"Ozark"},{"name":"Paint Rock"},{"name":"Palmerdale"},{"name":"Panola"},{"name":"Pansey"},{"name":"Parrish"},{"name":"Paul"},{"name":"Pelham"},{"name":"Pell City"},{"name":"Pennington"},{"name":"Perdido"},{"name":"Perdue Hill"},{"name":"Perote"},{"name":"Peterman"},{"name":"Peterson"},{"name":"Petrey"},{"name":"Phenix City"},{"name":"Phil Campbell"},{"name":"Piedmont"},{"name":"Pike Road"},{"name":"Pinckard"},{"name":"Pine Apple"},{"name":"Pine Hill"},{"name":"Pine Level"},{"name":"Pinson"},{"name":"Pisgah"},{"name":"Pittsview"},{"name":"Plantersville"},{"name":"Pleasant Grove"},{"name":"Point Clear"},{"name":"Prattville"},{"name":"Prichard"},{"name":"Princeton"},{"name":"Quinton"},{"name":"Ragland"},{"name":"Rainbow City"},{"name":"Rainsville"},{"name":"Ralph"},{"name":"Ramer"},{"name":"Ranburne"},{"name":"Randolph"},{"name":"Range"},{"name":"Red Bay"},{"name":"Red Level"},{"name":"Redstone Arsenal"},{"name":"Reform"},{"name":"Remlap"},{"name":"Repton"},{"name":"River Falls"},{"name":"Riverside"},{"name":"Roanoke"},{"name":"Robertsdale"},{"name":"Rockford"},{"name":"Rogersville"},{"name":"Russellville"},{"name":"Rutledge"},{"name":"Ryland"},{"name":"Safford"},{"name":"Saginaw"},{"name":"Saint Elmo"},{"name":"Saint Stephens"},{"name":"Salem"},{"name":"Salitpa"},{"name":"Samantha"},{"name":"Samson"},{"name":"Saraland"},{"name":"Sardis"},{"name":"Satsuma"},{"name":"Sawyerville"},{"name":"Sayre"},{"name":"Scottsboro"},{"name":"Seale"},{"name":"Section"},{"name":"Selma"},{"name":"Seminole"},{"name":"Semmes"},{"name":"Shannon"},{"name":"Sheffield"},{"name":"Shelby"},{"name":"Shorter"},{"name":"Shorterville"},{"name":"Silas"},{"name":"Siluria"},{"name":"Silverhill"},{"name":"Sipsey"},{"name":"Skipperville"},{"name":"Slocomb"},{"name":"Smiths"},{"name":"Snow Hill"},{"name":"Somerville"},{"name":"Spanish Fort"},{"name":"Spring Garden"},{"name":"Springville"},{"name":"Sprott"},{"name":"Spruce Pine"},{"name":"Stanton"},{"name":"Stapleton"},{"name":"Steele"},{"name":"Sterrett"},{"name":"Stevenson"},{"name":"Stockton"},{"name":"Sulligent"},{"name":"Sumiton"},{"name":"Summerdale"},{"name":"Sunflower"},{"name":"Sweet Water"},{"name":"Sycamore"},{"name":"Sylacauga"},{"name":"Sylvania"},{"name":"Talladega"},{"name":"Tallassee"},{"name":"Tanner"},{"name":"Theodore"},{"name":"Thomaston"},{"name":"Thomasville"},{"name":"Thorsby"},{"name":"Tibbie"},{"name":"Titus"},{"name":"Toney"},{"name":"Town Creek"},{"name":"Townley"},{"name":"Toxey"},{"name":"Trafford"},{"name":"Trenton"},{"name":"Trinity"},{"name":"Troy"},{"name":"Trussville"},{"name":"Tuscaloosa"},{"name":"Tuscumbia"},{"name":"Tuskegee"},{"name":"Tuskegee Institute"},{"name":"Tyler"},{"name":"Union Grove"},{"name":"Union Springs"},{"name":"Uniontown"},{"name":"Uriah"},{"name":"Valhermoso Springs"},{"name":"Valley"},{"name":"Valley Head"},{"name":"Vance"},{"name":"Vandiver"},{"name":"Verbena"},{"name":"Vernon"},{"name":"Vina"},{"name":"Vincent"},{"name":"Vinegar Bend"},{"name":"Vinemont"},{"name":"Vredenburgh"},{"name":"Wadley"},{"name":"Wagarville"},{"name":"Walker Springs"},{"name":"Walnut Grove"},{"name":"Ward"},{"name":"Warrior"},{"name":"Waterloo"},{"name":"Watson"},{"name":"Wattsville"},{"name":"Waverly"},{"name":"Weaver"},{"name":"Webb"},{"name":"Wedowee"},{"name":"Wellington"},{"name":"Weogufka"},{"name":"West Blocton"},{"name":"West Greene"},{"name":"Westover"},{"name":"Wetumpka"},{"name":"Whatley"},{"name":"Whistler"},{"name":"Wilmer"},{"name":"Wilsonville"},{"name":"Wilton"},{"name":"Winfield"},{"name":"Wing"},{"name":"Woodland"},{"name":"Woodstock"},{"name":"Woodville"},{"name":"York"}
]}
