
{"cities":[
  {"name":"Aiea"},{"name":"Anahola"},{"name":"Barbers Point NAS"},{"name":"Camp H M Smith"},{"name":"Captain Cook"},{"name":"Eleele"},{"name":"Ewa Beach"},{"name":"Fort Shafter"},{"name":"Haiku"},{"name":"Hakalau"},{"name":"Haleiwa"},{"name":"Hana"},{"name":"Hanalei"},{"name":"Hanamaulu"},{"name":"Hanapepe"},{"name":"Hauula"},{"name":"Hawaii Ntl Park"},{"name":"Hawi"},{"name":"Hickam AFB"},{"name":"Hilo"},{"name":"Holualoa"},{"name":"Honaunau"},{"name":"Honokaa"},{"name":"Honolulu"},{"name":"Honomu"},{"name":"Hoolehua"},{"name":"Kaaawa"},{"name":"Kahuku"},{"name":"Kahului"},{"name":"Kailua"},{"name":"Kailua Kona"},{"name":"Kalaheo"},{"name":"Kalaupapa"},{"name":"Kamuela"},{"name":"Kaneohe"},{"name":"Kapaa"},{"name":"Kapaau"},{"name":"Kapolei"},{"name":"Kaumakani"},{"name":"Kaunakakai"},{"name":"Keaau"},{"name":"Kealakekua"},{"name":"Kealia"},{"name":"Keauhou"},{"name":"Kekaha"},{"name":"Kihei"},{"name":"Kilauea"},{"name":"Koloa"},{"name":"Kualapuu"},{"name":"Kula"},{"name":"Kunia"},{"name":"Kurtistown"},{"name":"Lahaina"},{"name":"Laie"},{"name":"Lanai City"},{"name":"Laupahoehoe"},{"name":"Lawai"},{"name":"Lihue"},{"name":"Makawao"},{"name":"Makaweli"},{"name":"Maunaloa"},{"name":"MCBH Kaneohe Bay"},{"name":"Mililani"},{"name":"Mountain View"},{"name":"Naalehu"},{"name":"Ninole"},{"name":"Ocean View"},{"name":"Ookala"},{"name":"Paauhau"},{"name":"Paauilo"},{"name":"Pahala"},{"name":"Pahoa"},{"name":"Paia"},{"name":"Papaaloa"},{"name":"Papaikou"},{"name":"Pearl City"},{"name":"Pearl Harbor"},{"name":"Pepeekeo"},{"name":"Princeville"},{"name":"Pukalani"},{"name":"Puunene"},{"name":"Schofield Barracks"},{"name":"Volcano"},{"name":"Wahiawa"},{"name":"Waialua"},{"name":"Waianae"},{"name":"Waikoloa"},{"name":"Wailuku"},{"name":"Waimanalo"},{"name":"Waimea"},{"name":"Waipahu"},{"name":"Wake Island"},{"name":"Wheeler Army Airfield"}
]}
