
{"cities":[
  {"name":"Alamo"},{"name":"Amargosa Valley"},{"name":"Austin"},{"name":"Baker"},{"name":"Battle Mountain"},{"name":"Beatty"},{"name":"Beowawe"},{"name":"Blue Diamond"},{"name":"Boulder City"},{"name":"Bunkerville"},{"name":"Caliente"},{"name":"Cal Nev Ari"},{"name":"Carlin"},{"name":"Carson City"},{"name":"Crystal Bay"},{"name":"Dayton"},{"name":"Deeth"},{"name":"Denio"},{"name":"Duckwater"},{"name":"Dyer"},{"name":"East Ely"},{"name":"Elko"},{"name":"Ely"},{"name":"Empire"},{"name":"Eureka"},{"name":"Fallon"},{"name":"Fallon NAS"},{"name":"Fernley"},{"name":"Gabbs"},{"name":"Gardnerville"},{"name":"Genoa"},{"name":"Gerlach"},{"name":"Glenbrook"},{"name":"Golconda"},{"name":"Goldfield"},{"name":"Halleck"},{"name":"Hawthorne"},{"name":"Henderson"},{"name":"Hiko"},{"name":"Imlay"},{"name":"Incline Village"},{"name":"Indian Springs"},{"name":"Jackpot"},{"name":"Jarbidge"},{"name":"Jean"},{"name":"Lamoille"},{"name":"Las Vegas"},{"name":"Laughlin"},{"name":"Logandale"},{"name":"Lovelock"},{"name":"Lund"},{"name":"Luning"},{"name":"Manhattan"},{"name":"McDermitt"},{"name":"McGill"},{"name":"Mercury"},{"name":"Mesquite"},{"name":"Mina"},{"name":"Minden"},{"name":"Moapa"},{"name":"Montello"},{"name":"Mountain City"},{"name":"Nellis AFB"},{"name":"Nixon"},{"name":"North Las Vegas"},{"name":"Orovada"},{"name":"Overton"},{"name":"Owyhee"},{"name":"Pahrump"},{"name":"Panaca"},{"name":"Paradise Valley"},{"name":"Pioche"},{"name":"Reno"},{"name":"Round Mountain"},{"name":"Ruby Valley"},{"name":"Ruth"},{"name":"Schurz"},{"name":"Searchlight"},{"name":"Silver City"},{"name":"Silverpeak"},{"name":"Silver Springs"},{"name":"Smith"},{"name":"Sparks"},{"name":"Spring Creek"},{"name":"Stateline"},{"name":"Sun Valley"},{"name":"The Lakes"},{"name":"Tonopah"},{"name":"Tuscarora"},{"name":"Valmy"},{"name":"Verdi"},{"name":"Virginia City"},{"name":"Wadsworth"},{"name":"Washoe Valley"},{"name":"Wellington"},{"name":"Wells"},{"name":"Wendover"},{"name":"Winnemucca"},{"name":"Winnemucca"},{"name":"Yerington"},{"name":"Zephyr Cove"}
]}
