
{"cities":[
  {"name":"Aaronsburg"},{"name":"Abbottstown"},{"name":"Abington"},{"name":"Ackermanville"},{"name":"Acme"},{"name":"Acosta"},{"name":"Adah"},{"name":"Adamsburg"},{"name":"Adamstown"},{"name":"Adamsville"},{"name":"Addison"},{"name":"Adrian"},{"name":"Airville"},{"name":"Akron"},{"name":"Alba"},{"name":"Albion"},{"name":"Albrightsville"},{"name":"Alburtis"},{"name":"Aldenville"},{"name":"Aleppo"},{"name":"Alexandria"},{"name":"Aliquippa"},{"name":"Allenport"},{"name":"Allensville"},{"name":"Allentown"},{"name":"Allenwood"},{"name":"Allison"},{"name":"Allison Park"},{"name":"Allport"},{"name":"Altoona"},{"name":"Alum Bank"},{"name":"Alverda"},{"name":"Alverton"},{"name":"Amberson"},{"name":"Ambler"},{"name":"Ambridge"},{"name":"Amity"},{"name":"Analomink"},{"name":"Andreas"},{"name":"Anita"},{"name":"Annville"},{"name":"Antes Fort"},{"name":"Apollo"},{"name":"Aquashicola"},{"name":"Arcadia"},{"name":"Archbald"},{"name":"Arcola"},{"name":"Ardara"},{"name":"Ardmore"},{"name":"Arendtsville"},{"name":"Aristes"},{"name":"Armagh"},{"name":"Armbrust"},{"name":"Arnot"},{"name":"Arona"},{"name":"Artemas"},{"name":"Ashfield"},{"name":"Ashland"},{"name":"Ashville"},{"name":"Aspers"},{"name":"Aston"},{"name":"Atglen"},{"name":"Athens"},{"name":"Atlantic"},{"name":"Atlasburg"},{"name":"Auburn"},{"name":"Audubon"},{"name":"Aultman"},{"name":"Austin"},{"name":"Avella"},{"name":"Avis"},{"name":"Avondale"},{"name":"Avonmore"},{"name":"Baden"},{"name":"Bainbridge"},{"name":"Bairdford"},{"name":"Bakers Summit"},{"name":"Bakerstown"},{"name":"Bala-Cynwyd"},{"name":"Bally"},{"name":"Bangor"},{"name":"Barnesboro"},{"name":"Barnesville"},{"name":"Bart"},{"name":"Barto"},{"name":"Bartonsville"},{"name":"Bath"},{"name":"Bausman"},{"name":"Beach Haven"},{"name":"Beach Lake"},{"name":"Beallsville"},{"name":"Bear Creek"},{"name":"Bear Lake"},{"name":"Beaver"},{"name":"Beaverdale"},{"name":"Beaver Falls"},{"name":"Beaver Meadows"},{"name":"Beaver Springs"},{"name":"Beavertown"},{"name":"Beccaria"},{"name":"Bechtelsville"},{"name":"Bedford"},{"name":"Bedminster"},{"name":"Beech Creek"},{"name":"Bellefonte"},{"name":"Belle Vernon"},{"name":"Belleville"},{"name":"Bellwood"},{"name":"Belsano"},{"name":"Bendersville"},{"name":"Benezett"},{"name":"Bensalem"},{"name":"Bentleyville"},{"name":"Benton"},{"name":"Berlin"},{"name":"Bernville"},{"name":"Berrysburg"},{"name":"Berwick"},{"name":"Berwyn"},{"name":"Bessemer"},{"name":"Bethel"},{"name":"Bethel Park"},{"name":"Bethlehem"},{"name":"Beyer"},{"name":"Big Cove Tannery"},{"name":"Bigler"},{"name":"Biglerville"},{"name":"Big Run"},{"name":"Birchrunville"},{"name":"Bird in Hand"},{"name":"Birdsboro"},{"name":"Black Lick"},{"name":"Blain"},{"name":"Blairs Mills"},{"name":"Blairsville"},{"name":"Blakeslee"},{"name":"Blanchard"},{"name":"Blandburg"},{"name":"Blandon"},{"name":"Blooming Glen"},{"name":"Bloomsburg"},{"name":"Blossburg"},{"name":"Blue Ball"},{"name":"Blue Bell"},{"name":"Blue Ridge Summit"},{"name":"Boalsburg"},{"name":"Bobtown"},{"name":"Bodines"},{"name":"Boiling Springs"},{"name":"Bolivar"},{"name":"Boswell"},{"name":"Bovard"},{"name":"Bowers"},{"name":"Bowmansdale"},{"name":"Bowmanstown"},{"name":"Bowmansville"},{"name":"Boyers"},{"name":"Boyertown"},{"name":"Boynton"},{"name":"Brackenridge"},{"name":"Brackney"},{"name":"Braddock"},{"name":"Bradenville"},{"name":"Bradford"},{"name":"Bradfordwoods"},{"name":"Branchdale"},{"name":"Branchton"},{"name":"Brandamore"},{"name":"Brandy Camp"},{"name":"Brave"},{"name":"Breezewood"},{"name":"Breinigsville"},{"name":"Bridgeport"},{"name":"Bridgeville"},{"name":"Brier Hill"},{"name":"Brisbin"},{"name":"Bristol"},{"name":"Broad Top"},{"name":"Brockport"},{"name":"Brockton"},{"name":"Brockway"},{"name":"Brodheadsville"},{"name":"Brogue"},{"name":"Brookhaven"},{"name":"Brooklyn"},{"name":"Brookville"},{"name":"Broomall"},{"name":"Brownfield"},{"name":"Brownstown"},{"name":"Brownsville"},{"name":"Bruin"},{"name":"Brush Valley"},{"name":"Bryn Athyn"},{"name":"Bryn Mawr"},{"name":"Buck Hill Falls"},{"name":"Buckingham"},{"name":"Buena Vista"},{"name":"Buffalo Mills"},{"name":"Bulger"},{"name":"Bunola"},{"name":"Burgettstown"},{"name":"Burlington"},{"name":"Burnham"},{"name":"Burnside"},{"name":"Burnt Cabins"},{"name":"Bushkill"},{"name":"Butler"},{"name":"Byrnedale"},{"name":"Cabot"},{"name":"Cadogan"},{"name":"Cairnbrook"},{"name":"California"},{"name":"Callensburg"},{"name":"Callery"},{"name":"Calumet"},{"name":"Calvin"},{"name":"Cambra"},{"name":"Cambridge Springs"},{"name":"Cammal"},{"name":"Campbelltown"},{"name":"Camp Hill"},{"name":"Camptown"},{"name":"Canadensis"},{"name":"Canonsburg"},{"name":"Canton"},{"name":"Carbondale"},{"name":"Cardale"},{"name":"Carlisle"},{"name":"Carlton"},{"name":"Carmichaels"},{"name":"Carnegie"},{"name":"Carrolltown"},{"name":"Carversville"},{"name":"Cashtown"},{"name":"Cassandra"},{"name":"Cassville"},{"name":"Castanea"},{"name":"Catasauqua"},{"name":"Catawissa"},{"name":"Cecil"},{"name":"Cedar Run"},{"name":"Cedars"},{"name":"Centerport"},{"name":"Center Valley"},{"name":"Centerville"},{"name":"Central City"},{"name":"Centralia"},{"name":"Centre Hall"},{"name":"Chadds Ford"},{"name":"Chalfont"},{"name":"Chalkhill"},{"name":"Chambersburg"},{"name":"Chambersville"},{"name":"Champion"},{"name":"Chandlers Valley"},{"name":"Charleroi"},{"name":"Chatham"},{"name":"Cheltenham"},{"name":"Cherry Tree"},{"name":"Cherryville"},{"name":"Chester"},{"name":"Chester Heights"},{"name":"Chester Springs"},{"name":"Chestnut Ridge"},{"name":"Chest Springs"},{"name":"Cheswick"},{"name":"Cheyney"},{"name":"Chicora"},{"name":"Chinchilla"},{"name":"Christiana"},{"name":"Clairton"},{"name":"Clarence"},{"name":"Clarendon"},{"name":"Claridge"},{"name":"Clarington"},{"name":"Clarion"},{"name":"Clark"},{"name":"Clarksburg"},{"name":"Clarks Mills"},{"name":"Clarks Summit"},{"name":"Clarksville"},{"name":"Claysburg"},{"name":"Claysville"},{"name":"Clearfield"},{"name":"Clearville"},{"name":"Clifford"},{"name":"Clifton Heights"},{"name":"Climax"},{"name":"Clinton"},{"name":"Clintonville"},{"name":"Clune"},{"name":"Clymer"},{"name":"Coal Center"},{"name":"Coaldale"},{"name":"Coalport"},{"name":"Coatesville"},{"name":"Coburn"},{"name":"Cochranton"},{"name":"Cochranville"},{"name":"Cocolamus"},{"name":"Codorus"},{"name":"Cogan Station"},{"name":"Cokeburg"},{"name":"Colebrook"},{"name":"Collegeville"},{"name":"Colmar"},{"name":"Columbia"},{"name":"Columbia Cross Roads"},{"name":"Columbus"},{"name":"Colver"},{"name":"Commodore"},{"name":"Concord"},{"name":"Concordville"},{"name":"Conestoga"},{"name":"Confluence"},{"name":"Conneaut Lake"},{"name":"Conneautville"},{"name":"Connellsville"},{"name":"Connoquenessing"},{"name":"Conshohocken"},{"name":"Conway"},{"name":"Conyngham"},{"name":"Cooksburg"},{"name":"Coolspring"},{"name":"Coopersburg"},{"name":"Cooperstown"},{"name":"Coplay"},{"name":"Coral"},{"name":"Coraopolis"},{"name":"Cornwall"},{"name":"Corry"},{"name":"Corsica"},{"name":"Coudersport"},{"name":"Coulters"},{"name":"Coupon"},{"name":"Covington"},{"name":"Cowanesque"},{"name":"Cowansville"},{"name":"Crabtree"},{"name":"Craley"},{"name":"Cranberry"},{"name":"Cranberry Township"},{"name":"Cranesville"},{"name":"Creamery"},{"name":"Creekside"},{"name":"Creighton"},{"name":"Cresco"},{"name":"Cresson"},{"name":"Cressona"},{"name":"Crosby"},{"name":"Cross Fork"},{"name":"Crown"},{"name":"Croydon"},{"name":"Crucible"},{"name":"Crum Lynne"},{"name":"Crystal Spring"},{"name":"Cuddy"},{"name":"Cumbola"},{"name":"Curllsville"},{"name":"Curryville"},{"name":"Curtisville"},{"name":"Curwensville"},{"name":"Custer City"},{"name":"Cyclone"},{"name":"Dagus Mines"},{"name":"Daisytown"},{"name":"Dallas"},{"name":"Dallastown"},{"name":"Dalmatia"},{"name":"Dalton"},{"name":"Damascus"},{"name":"Danboro"},{"name":"Danielsville"},{"name":"Danville"},{"name":"Darby"},{"name":"Darlington"},{"name":"Darragh"},{"name":"Dauberville"},{"name":"Dauphin"},{"name":"Davidsville"},{"name":"Dawson"},{"name":"Dayton"},{"name":"Defiance"},{"name":"DeLancey"},{"name":"Delano"},{"name":"Delaware Water Gap"},{"name":"Delmont"},{"name":"Delta"},{"name":"Denbo"},{"name":"Denver"},{"name":"Derrick City"},{"name":"Derry"},{"name":"Devault"},{"name":"Devon"},{"name":"Dewart"},{"name":"DeYoung"},{"name":"Dickerson Run"},{"name":"Dickson City"},{"name":"Dilliner"},{"name":"Dillsburg"},{"name":"Dilltown"},{"name":"Dimock"},{"name":"Dingmans Ferry"},{"name":"Distant"},{"name":"Dixonville"},{"name":"Donegal"},{"name":"Donora"},{"name":"Dornsife"},{"name":"Douglassville"},{"name":"Dover"},{"name":"Downingtown"},{"name":"Doylesburg"},{"name":"Doylestown"},{"name":"Dravosburg"},{"name":"Dresher"},{"name":"Drexel Hill"},{"name":"Drifting"},{"name":"Drifton"},{"name":"Driftwood"},{"name":"Drumore"},{"name":"Drums"},{"name":"Dry Run"},{"name":"Dublin"},{"name":"DuBois"},{"name":"Dudley"},{"name":"Duke Center"},{"name":"Dunbar"},{"name":"Duncannon"},{"name":"Duncansville"},{"name":"Dunlevy"},{"name":"Dunlo"},{"name":"Dunmore"},{"name":"Dupont"},{"name":"Duquesne"},{"name":"Durham"},{"name":"Duryea"},{"name":"Dushore"},{"name":"Dysart"},{"name":"Eagles Mere"},{"name":"Eagleville"},{"name":"Earlington"},{"name":"Earlville"},{"name":"East Berlin"},{"name":"East Brady"},{"name":"East Butler"},{"name":"East Earl"},{"name":"East Freedom"},{"name":"East Greenville"},{"name":"East Hickory"},{"name":"East McKeesport"},{"name":"East Millsboro"},{"name":"Easton"},{"name":"East Petersburg"},{"name":"East Pittsburgh"},{"name":"East Prospect"},{"name":"East Smethport"},{"name":"East Smithfield"},{"name":"East Springfield"},{"name":"East Stroudsburg"},{"name":"East Texas"},{"name":"East Vandergrift"},{"name":"East Waterford"},{"name":"Eau Claire"},{"name":"Ebensburg"},{"name":"Ebervale"},{"name":"Edgemont"},{"name":"Edinboro"},{"name":"Edinburg"},{"name":"Edmon"},{"name":"Effort"},{"name":"Eighty Four"},{"name":"Elco"},{"name":"Eldersville"},{"name":"Elderton"},{"name":"Eldred"},{"name":"Elgin"},{"name":"Elizabeth"},{"name":"Elizabethtown"},{"name":"Elizabethville"},{"name":"Elkins Park"},{"name":"Elkland"},{"name":"Elliottsburg"},{"name":"Ellsworth"},{"name":"Ellwood City"},{"name":"Elm"},{"name":"Elmhurst"},{"name":"Elmora"},{"name":"Elrama"},{"name":"Elton"},{"name":"Elverson"},{"name":"Elysburg"},{"name":"Emeigh"},{"name":"Emigsville"},{"name":"Emlenton"},{"name":"Emmaus"},{"name":"Emporium"},{"name":"Endeavor"},{"name":"Enola"},{"name":"Enon Valley"},{"name":"Entriken"},{"name":"Ephrata"},{"name":"Equinunk"},{"name":"Erie"},{"name":"Ernest"},{"name":"Erwinna"},{"name":"Essington"},{"name":"Etters"},{"name":"Evans City"},{"name":"Everett"},{"name":"Everson"},{"name":"Excelsior"},{"name":"Export"},{"name":"Exton"},{"name":"Factoryville"},{"name":"Fairbank"},{"name":"Fairchance"},{"name":"Fairfield"},{"name":"Fairhope"},{"name":"Fairless Hills"},{"name":"Fairmount City"},{"name":"Fairview"},{"name":"Fairview Village"},{"name":"Fallentimber"},{"name":"Falls"},{"name":"Falls Creek"},{"name":"Fannettsburg"},{"name":"Farmington"},{"name":"Farrandsville"},{"name":"Farrell"},{"name":"Fawn Grove"},{"name":"Fayette City"},{"name":"Fayetteville"},{"name":"Feasterville-Trevose"},{"name":"Felton"},{"name":"Fenelton"},{"name":"Ferndale"},{"name":"Finleyville"},{"name":"Fisher"},{"name":"Fishertown"},{"name":"Fleetville"},{"name":"Fleetwood"},{"name":"Fleming"},{"name":"Flicksville"},{"name":"Flinton"},{"name":"Flourtown"},{"name":"Fogelsville"},{"name":"Folcroft"},{"name":"Folsom"},{"name":"Fombell"},{"name":"Forbes Road"},{"name":"Force"},{"name":"Ford City"},{"name":"Ford Cliff"},{"name":"Forest City"},{"name":"Forest Grove"},{"name":"Forestville"},{"name":"Forksville"},{"name":"Fort Hill"},{"name":"Fort Littleton"},{"name":"Fort Loudon"},{"name":"Fort Washington"},{"name":"Fountainville"},{"name":"Foxburg"},{"name":"Frackville"},{"name":"Franconia"},{"name":"Franklin"},{"name":"Franklintown"},{"name":"Frederick"},{"name":"Fredericksburg"},{"name":"Fredericktown"},{"name":"Fredonia"},{"name":"Freeburg"},{"name":"Freedom"},{"name":"Freeland"},{"name":"Freeport"},{"name":"Frenchville"},{"name":"Friedens"},{"name":"Friedensburg"},{"name":"Friendsville"},{"name":"Frostburg"},{"name":"Fryburg"},{"name":"Furlong"},{"name":"Gaines"},{"name":"Galeton"},{"name":"Gallitzin"},{"name":"Gans"},{"name":"Gap"},{"name":"Garards Fort"},{"name":"Gardenville"},{"name":"Gardners"},{"name":"Garland"},{"name":"Garrett"},{"name":"Gastonville"},{"name":"Geigertown"},{"name":"Genesee"},{"name":"Georgetown"},{"name":"Germansville"},{"name":"Gettysburg"},{"name":"Gibbon Glade"},{"name":"Gibson"},{"name":"Gibsonia"},{"name":"Gifford"},{"name":"Gilbert"},{"name":"Gilberton"},{"name":"Gilbertsville"},{"name":"Gillett"},{"name":"Gipsy"},{"name":"Girard"},{"name":"Girardville"},{"name":"Gladwyne"},{"name":"Glasgow"},{"name":"Glassport"},{"name":"Glen Campbell"},{"name":"Glen Hope"},{"name":"Glen Lyon"},{"name":"Glen Mills"},{"name":"Glenmoore"},{"name":"Glenolden"},{"name":"Glen Richey"},{"name":"Glen Riddle"},{"name":"Glen Rock"},{"name":"Glenshaw"},{"name":"Glenside"},{"name":"Glenville"},{"name":"Glenwillard"},{"name":"Goodville"},{"name":"Gordon"},{"name":"Gordonville"},{"name":"Gouldsboro"},{"name":"Gowen City"},{"name":"Gradyville"},{"name":"Grampian"},{"name":"Grand Valley"},{"name":"Grantham"},{"name":"Grantville"},{"name":"Granville"},{"name":"Granville Summit"},{"name":"Grapeville"},{"name":"Grassflat"},{"name":"Gratz"},{"name":"Gray"},{"name":"Graysville"},{"name":"Great Bend"},{"name":"Greeley"},{"name":"Greencastle"},{"name":"Green Lane"},{"name":"Greenock"},{"name":"Green Park"},{"name":"Greensboro"},{"name":"Greensburg"},{"name":"Greentown"},{"name":"Greenville"},{"name":"Grindstone"},{"name":"Grove City"},{"name":"Grover"},{"name":"Guys Mills"},{"name":"Gwynedd"},{"name":"Gwynedd Valley"},{"name":"Hadley"},{"name":"Halifax"},{"name":"Hallstead"},{"name":"Hamburg"},{"name":"Hamilton"},{"name":"Hamlin"},{"name":"Hannastown"},{"name":"Hanover"},{"name":"Harborcreek"},{"name":"Harford"},{"name":"Harleigh"},{"name":"Harleysville"},{"name":"Harmonsburg"},{"name":"Harmony"},{"name":"Harrisburg"},{"name":"Harrison City"},{"name":"Harrison Valley"},{"name":"Harrisonville"},{"name":"Harrisville"},{"name":"Hartleton"},{"name":"Hartstown"},{"name":"Harveys Lake"},{"name":"Harwick"},{"name":"Hastings"},{"name":"Hatboro"},{"name":"Hatfield"},{"name":"Haverford"},{"name":"Havertown"},{"name":"Hawk Run"},{"name":"Hawley"},{"name":"Hawthorn"},{"name":"Hazel Hurst"},{"name":"Hazleton"},{"name":"Hegins"},{"name":"Heilwood"},{"name":"Helfenstein"},{"name":"Hellertown"},{"name":"Hendersonville"},{"name":"Henryville"},{"name":"Hereford"},{"name":"Herman"},{"name":"Herminie"},{"name":"Hermitage"},{"name":"Herndon"},{"name":"Herrick Center"},{"name":"Hershey"},{"name":"Hesston"},{"name":"Hibbs"},{"name":"Hickory"},{"name":"Hidden Valley"},{"name":"Highspire"},{"name":"Hiller"},{"name":"Hilliards"},{"name":"Hillsdale"},{"name":"Hillsgrove"},{"name":"Hillsville"},{"name":"Hilltown"},{"name":"Holbrook"},{"name":"Holicong"},{"name":"Holland"},{"name":"Hollidaysburg"},{"name":"Hollsopple"},{"name":"Holmes"},{"name":"Holtwood"},{"name":"Home"},{"name":"Homer City"},{"name":"Homestead"},{"name":"Honesdale"},{"name":"Honey Brook"},{"name":"Honey Grove"},{"name":"Hookstown"},{"name":"Hooversville"},{"name":"Hop Bottom"},{"name":"Hopeland"},{"name":"Hopewell"},{"name":"Hopwood"},{"name":"Horsham"},{"name":"Hostetter"},{"name":"Houston"},{"name":"Houtzdale"},{"name":"Howard"},{"name":"Hughesville"},{"name":"Hummelstown"},{"name":"Hummels Wharf"},{"name":"Hunker"},{"name":"Hunlock Creek"},{"name":"Huntingdon"},{"name":"Huntingdon Valley"},{"name":"Huntington Mills"},{"name":"Hustontown"},{"name":"Hutchinson"},{"name":"Hyde"},{"name":"Hyde Park"},{"name":"Hydetown"},{"name":"Hyndman"},{"name":"Hyner"},{"name":"Ickesburg"},{"name":"Idaville"},{"name":"Imler"},{"name":"Immaculata"},{"name":"Imperial"},{"name":"Indiana"},{"name":"Indian Head"},{"name":"Indianola"},{"name":"Industry"},{"name":"Ingomar"},{"name":"Intercourse"},{"name":"Irvine"},{"name":"Irvona"},{"name":"Irwin"},{"name":"Isabella"},{"name":"Jackson"},{"name":"Jackson Center"},{"name":"Jacobs Creek"},{"name":"Jacobus"},{"name":"James City"},{"name":"James Creek"},{"name":"Jamestown"},{"name":"Jamison"},{"name":"Jeannette"},{"name":"Jefferson"},{"name":"Jenkintown"},{"name":"Jenners"},{"name":"Jennerstown"},{"name":"Jermyn"},{"name":"Jerome"},{"name":"Jersey Mills"},{"name":"Jersey Shore"},{"name":"Jessup"},{"name":"Jim Thorpe"},{"name":"Joffre"},{"name":"Johnsonburg"},{"name":"Johnstown"},{"name":"Jones Mills"},{"name":"Jonestown"},{"name":"Josephine"},{"name":"Julian"},{"name":"Juneau"},{"name":"Junedale"},{"name":"Kane"},{"name":"Kantner"},{"name":"Karns City"},{"name":"Karthaus"},{"name":"Keisterville"},{"name":"Kelayres"},{"name":"Kelton"},{"name":"Kemblesville"},{"name":"Kempton"},{"name":"Kennerdell"},{"name":"Kennett Square"},{"name":"Kent"},{"name":"Kersey"},{"name":"Kimberton"},{"name":"King of Prussia"},{"name":"King Of Prussia"},{"name":"Kingsley"},{"name":"Kingston"},{"name":"Kintnersville"},{"name":"Kinzers"},{"name":"Kirkwood"},{"name":"Kittanning"},{"name":"Kleinfeltersville"},{"name":"Klingerstown"},{"name":"Knox"},{"name":"Knox Dale"},{"name":"Knoxville"},{"name":"Koppel"},{"name":"Kossuth"},{"name":"Kreamer"},{"name":"Kresgeville"},{"name":"Kulpmont"},{"name":"Kulpsville"},{"name":"Kunkletown"},{"name":"Kutztown"},{"name":"Kylertown"},{"name":"La Belle"},{"name":"Laceyville"},{"name":"Lackawaxen"},{"name":"Lafayette Hill"},{"name":"Lahaska"},{"name":"Lairdsville"},{"name":"La Jose"},{"name":"Lake Ariel"},{"name":"Lake City"},{"name":"Lake Como"},{"name":"Lake Harmony"},{"name":"Lake Lynn"},{"name":"Lakeville"},{"name":"Lake Winola"},{"name":"Lakewood"},{"name":"Lamar"},{"name":"Lamartine"},{"name":"Lampeter"},{"name":"Lancaster"},{"name":"Landenberg"},{"name":"Landingville"},{"name":"Landisburg"},{"name":"Landisville"},{"name":"Lanesboro"},{"name":"Langeloth"},{"name":"Langhorne"},{"name":"Lansdale"},{"name":"Lansdowne"},{"name":"Lanse"},{"name":"Lansford"},{"name":"La Plume"},{"name":"Laporte"},{"name":"Larimer"},{"name":"Latrobe"},{"name":"Lattimer Mines"},{"name":"Laughlintown"},{"name":"Laurelton"},{"name":"Laurys Station"},{"name":"Lavelle"},{"name":"Lawn"},{"name":"Lawrence"},{"name":"Lawrenceville"},{"name":"Lawton"},{"name":"Lebanon"},{"name":"Leck Kill"},{"name":"Leckrone"},{"name":"Lecontes Mills"},{"name":"Lederach"},{"name":"Leechburg"},{"name":"Leeper"},{"name":"Leesport"},{"name":"Leetsdale"},{"name":"Lehighton"},{"name":"Lehigh Valley"},{"name":"Lehman"},{"name":"Leisenring"},{"name":"Lemasters"},{"name":"Lemont"},{"name":"Lemont Furnace"},{"name":"Lemoyne"},{"name":"Lenhartsville"},{"name":"Lenni"},{"name":"Lenoxville"},{"name":"Leola"},{"name":"Le Raysville"},{"name":"Le Roy"},{"name":"Levittown"},{"name":"Lewisberry"},{"name":"Lewisburg"},{"name":"Lewis Run"},{"name":"Lewistown"},{"name":"Lewisville"},{"name":"Liberty"},{"name":"Library"},{"name":"Lickingville"},{"name":"Light Street"},{"name":"Ligonier"},{"name":"Lilly"},{"name":"Limekiln"},{"name":"Limeport"},{"name":"Limestone"},{"name":"Lincoln University"},{"name":"Linden"},{"name":"Line Lexington"},{"name":"Linesville"},{"name":"Lionville"},{"name":"Listie"},{"name":"Lititz"},{"name":"Little Meadows"},{"name":"Littlestown"},{"name":"Liverpool"},{"name":"Llewellyn"},{"name":"Lock Haven"},{"name":"Locustdale"},{"name":"Locust Gap"},{"name":"Loganton"},{"name":"Loganville"},{"name":"Long Pond"},{"name":"Lopez"},{"name":"Loretto"},{"name":"Lost Creek"},{"name":"Lowber"},{"name":"Loyalhanna"},{"name":"Loysburg"},{"name":"Loysville"},{"name":"Lucernemines"},{"name":"Lucinda"},{"name":"Ludlow"},{"name":"Lumberville"},{"name":"Lurgan"},{"name":"Luthersburg"},{"name":"Luxor"},{"name":"Luzerne"},{"name":"Lykens"},{"name":"Lyndell"},{"name":"Lyndora"},{"name":"Lyon Station"},{"name":"Mackeyville"},{"name":"Macungie"},{"name":"Madera"},{"name":"Madison"},{"name":"Madisonburg"},{"name":"Mahaffey"},{"name":"Mahanoy City"},{"name":"Mahanoy Plane"},{"name":"Mainesburg"},{"name":"Mainland"},{"name":"Malvern"},{"name":"Mammoth"},{"name":"Manchester"},{"name":"Manheim"},{"name":"Manns Choice"},{"name":"Manor"},{"name":"Manorville"},{"name":"Mansfield"},{"name":"Mapleton Depot"},{"name":"Marble"},{"name":"Marchand"},{"name":"Marcus Hook"},{"name":"Marianna"},{"name":"Marienville"},{"name":"Marietta"},{"name":"Marion"},{"name":"Marion Center"},{"name":"Marion Heights"},{"name":"Markleton"},{"name":"Markleysburg"},{"name":"Mar Lin"},{"name":"Mars"},{"name":"Marshalls Creek"},{"name":"Marsteller"},{"name":"Martin"},{"name":"Martindale"},{"name":"Martinsburg"},{"name":"Martins Creek"},{"name":"Mary D"},{"name":"Marysville"},{"name":"Masontown"},{"name":"Matamoras"},{"name":"Mather"},{"name":"Mattawana"},{"name":"Maxatawny"},{"name":"Mayport"},{"name":"Maytown"},{"name":"McAdoo"},{"name":"McAlisterville"},{"name":"McClellandtown"},{"name":"McClure"},{"name":"McConnellsburg"},{"name":"McConnellstown"},{"name":"McDonald"},{"name":"McElhattan"},{"name":"McEwensville"},{"name":"McGrann"},{"name":"McIntyre"},{"name":"McKean"},{"name":"McKeesport"},{"name":"McKees Rocks"},{"name":"McKnightstown"},{"name":"McSherrystown"},{"name":"McVeytown"},{"name":"Meadow Lands"},{"name":"Meadville"},{"name":"Mechanicsburg"},{"name":"Mechanicsville"},{"name":"Media"},{"name":"Mehoopany"},{"name":"Melcroft"},{"name":"Mendenhall"},{"name":"Menges Mills"},{"name":"Mentcle"},{"name":"Mercer"},{"name":"Mercersburg"},{"name":"Merion Station"},{"name":"Merrittstown"},{"name":"Mertztown"},{"name":"Meshoppen"},{"name":"Mexico"},{"name":"Meyersdale"},{"name":"Middleburg"},{"name":"Middlebury Center"},{"name":"Middle Creek"},{"name":"Middleport"},{"name":"Middletown"},{"name":"Midland"},{"name":"Midway"},{"name":"Mifflin"},{"name":"Mifflinburg"},{"name":"Mifflintown"},{"name":"Mifflinville"},{"name":"Milan"},{"name":"Milanville"},{"name":"Mildred"},{"name":"Milesburg"},{"name":"Milford"},{"name":"Milford Square"},{"name":"Mill Creek"},{"name":"Millersburg"},{"name":"Millerstown"},{"name":"Millersville"},{"name":"Millerton"},{"name":"Mill Hall"},{"name":"Millheim"},{"name":"Millmont"},{"name":"Millrift"},{"name":"Mill Run"},{"name":"Mills"},{"name":"Millsboro"},{"name":"Mill Village"},{"name":"Millville"},{"name":"Milnesville"},{"name":"Milroy"},{"name":"Milton"},{"name":"Mineral Point"},{"name":"Mineral Springs"},{"name":"Minersville"},{"name":"Mingoville"},{"name":"Minisink Hills"},{"name":"Miquon"},{"name":"Modena"},{"name":"Mohnton"},{"name":"Mohrsville"},{"name":"Monaca"},{"name":"Monessen"},{"name":"Monocacy Station"},{"name":"Monongahela"},{"name":"Monroeton"},{"name":"Monroeville"},{"name":"Mont Alto"},{"name":"Montandon"},{"name":"Mont Clare"},{"name":"Montgomery"},{"name":"Montgomeryville"},{"name":"Montoursville"},{"name":"Montrose"},{"name":"Moosic"},{"name":"Morann"},{"name":"Morgan"},{"name":"Morgantown"},{"name":"Morris"},{"name":"Morrisdale"},{"name":"Morris Run"},{"name":"Morton"},{"name":"Moscow"},{"name":"Moshannon"},{"name":"Mount Aetna"},{"name":"Mountainhome"},{"name":"Mountain Top"},{"name":"Mount Bethel"},{"name":"Mount Braddock"},{"name":"Mount Carmel"},{"name":"Mount Gretna"},{"name":"Mount Holly Springs"},{"name":"Mount Jewett"},{"name":"Mount Joy"},{"name":"Mount Morris"},{"name":"Mount Pleasant"},{"name":"Mount Pleasant Mills"},{"name":"Mount Pocono"},{"name":"Mount Union"},{"name":"Mountville"},{"name":"Mount Wolf"},{"name":"Moylan"},{"name":"Muir"},{"name":"Muncy"},{"name":"Muncy Valley"},{"name":"Munson"},{"name":"Murrysville"},{"name":"Muse"},{"name":"Myerstown"},{"name":"Nanticoke"},{"name":"Nanty Glo"},{"name":"Narberth"},{"name":"Narvon"},{"name":"Natrona Heights"},{"name":"Nazareth"},{"name":"Needmore"},{"name":"Neelyton"},{"name":"Neffs"},{"name":"Nelson"},{"name":"Nemacolin"},{"name":"Nescopeck"},{"name":"Nesquehoning"},{"name":"New Albany"},{"name":"New Alexandria"},{"name":"New Baltimore"},{"name":"New Bedford"},{"name":"New Berlin"},{"name":"New Berlinville"},{"name":"New Bethlehem"},{"name":"New Bloomfield"},{"name":"New Brighton"},{"name":"New Buffalo"},{"name":"Newburg"},{"name":"New Castle"},{"name":"New Columbia"},{"name":"New Cumberland"},{"name":"New Derry"},{"name":"New Eagle"},{"name":"Newell"},{"name":"New Enterprise"},{"name":"New Florence"},{"name":"Newfoundland"},{"name":"New Freedom"},{"name":"New Freeport"},{"name":"New Galilee"},{"name":"New Geneva"},{"name":"New Germantown"},{"name":"New Holland"},{"name":"New Hope"},{"name":"New Kensington"},{"name":"New Kingstown"},{"name":"New London"},{"name":"Newmanstown"},{"name":"New Milford"},{"name":"New Millport"},{"name":"New Oxford"},{"name":"New Paris"},{"name":"New Park"},{"name":"New Philadelphia"},{"name":"Newport"},{"name":"New Providence"},{"name":"New Ringgold"},{"name":"Newry"},{"name":"New Salem"},{"name":"New Stanton"},{"name":"Newton Hamilton"},{"name":"Newtown"},{"name":"Newtown Square"},{"name":"New Tripoli"},{"name":"Newville"},{"name":"New Wilmington"},{"name":"Nicholson"},{"name":"Nicktown"},{"name":"Nineveh"},{"name":"Nisbet"},{"name":"Normalville"},{"name":"Norristown"},{"name":"Northampton"},{"name":"North Apollo"},{"name":"North Bend"},{"name":"North Bingham"},{"name":"North East"},{"name":"North Point"},{"name":"North Springfield"},{"name":"Northumberland"},{"name":"North Versailles"},{"name":"North Wales"},{"name":"North Washington"},{"name":"Norvelt"},{"name":"Norwood"},{"name":"Nottingham"},{"name":"Noxen"},{"name":"Nuangola"},{"name":"Numidia"},{"name":"Nu Mine"},{"name":"Nuremberg"},{"name":"Oakdale"},{"name":"Oakland Mills"},{"name":"Oakmont"},{"name":"Oak Ridge"},{"name":"Oaks"},{"name":"Ohiopyle"},{"name":"Oil City"},{"name":"Olanta"},{"name":"Old Forge"},{"name":"Old Zionsville"},{"name":"Oley"},{"name":"Oliveburg"},{"name":"Oliver"},{"name":"Olyphant"},{"name":"Oneida"},{"name":"Ono"},{"name":"Orangeville"},{"name":"Orbisonia"},{"name":"Orefield"},{"name":"Oreland"},{"name":"Orrstown"},{"name":"Orrtanna"},{"name":"Orson"},{"name":"Orviston"},{"name":"Orwigsburg"},{"name":"Osceola"},{"name":"Osceola Mills"},{"name":"Osterburg"},{"name":"Ottsville"},{"name":"Oxford"},{"name":"Palm"},{"name":"Palmer"},{"name":"Palmerton"},{"name":"Palmyra"},{"name":"Paoli"},{"name":"Paradise"},{"name":"Pardeesville"},{"name":"Parker"},{"name":"Parker Ford"},{"name":"Parkesburg"},{"name":"Parkhill"},{"name":"Parryville"},{"name":"Patton"},{"name":"Paupack"},{"name":"Paxinos"},{"name":"Paxtonville"},{"name":"Peach Bottom"},{"name":"Peach Glen"},{"name":"Peckville"},{"name":"Pen Argyl"},{"name":"Penfield"},{"name":"Penn"},{"name":"Penn Hills"},{"name":"Penn Run"},{"name":"Pennsburg"},{"name":"Penns Creek"},{"name":"Penns Park"},{"name":"Pennsylvania Furnace"},{"name":"Penryn"},{"name":"Pequea"},{"name":"Perkasie"},{"name":"Perkiomenville"},{"name":"Perryopolis"},{"name":"Petersburg"},{"name":"Petrolia"},{"name":"Philadelphia"},{"name":"Philipsburg"},{"name":"Phoenixville"},{"name":"Picture Rocks"},{"name":"Pillow"},{"name":"Pine Bank"},{"name":"Pine Forge"},{"name":"Pine Grove"},{"name":"Pine Grove Mills"},{"name":"Pineville"},{"name":"Pipersville"},{"name":"Pitcairn"},{"name":"Pitman"},{"name":"Pittsburgh"},{"name":"Pittsfield"},{"name":"Pittston"},{"name":"Plainfield"},{"name":"Pleasant Hall"},{"name":"Pleasant Mount"},{"name":"Pleasant Unity"},{"name":"Pleasantville"},{"name":"Plum"},{"name":"Plumsteadville"},{"name":"Plumville"},{"name":"Plymouth"},{"name":"Plymouth Meeting"},{"name":"Pocono Lake"},{"name":"Pocono Lake Preserve"},{"name":"Pocono Manor"},{"name":"Pocono Pines"},{"name":"Pocono Summit"},{"name":"Pocopson"},{"name":"Point Marion"},{"name":"Point Pleasant"},{"name":"Polk"},{"name":"Pomeroy"},{"name":"Portage"},{"name":"Port Allegany"},{"name":"Port Carbon"},{"name":"Port Clinton"},{"name":"Porters Sideling"},{"name":"Portersville"},{"name":"Portland"},{"name":"Port Matilda"},{"name":"Port Royal"},{"name":"Port Trevorton"},{"name":"Pottersdale"},{"name":"Potts Grove"},{"name":"Pottstown"},{"name":"Pottsville"},{"name":"Poyntelle"},{"name":"Presto"},{"name":"Preston Park"},{"name":"Pricedale"},{"name":"Prompton"},{"name":"Prospect"},{"name":"Prospect Park"},{"name":"Prosperity"},{"name":"Pulaski"},{"name":"Punxsutawney"},{"name":"Quakake"},{"name":"Quakertown"},{"name":"Quarryville"},{"name":"Quecreek"},{"name":"Queen"},{"name":"Quentin"},{"name":"Quincy"},{"name":"Radnor"},{"name":"Railroad"},{"name":"Ralston"},{"name":"Ramey"},{"name":"Ranshaw"},{"name":"Ransom"},{"name":"Ravine"},{"name":"Reading"},{"name":"Reamstown"},{"name":"Rebersburg"},{"name":"Rebuck"},{"name":"Rector"},{"name":"Red Hill"},{"name":"Red Lion"},{"name":"Reeders"},{"name":"Reedsville"},{"name":"Refton"},{"name":"Rehrersburg"},{"name":"Reinholds"},{"name":"Renfrew"},{"name":"Reno"},{"name":"Renovo"},{"name":"Republic"},{"name":"Revere"},{"name":"Revloc"},{"name":"Rew"},{"name":"Rexmont"},{"name":"Reynoldsville"},{"name":"Rheems"},{"name":"Rices Landing"},{"name":"Riceville"},{"name":"Richboro"},{"name":"Richeyville"},{"name":"Richfield"},{"name":"Richland"},{"name":"Richlandtown"},{"name":"Riddlesburg"},{"name":"Ridgway"},{"name":"Ridley Park"},{"name":"Riegelsville"},{"name":"Rillton"},{"name":"Rimersburg"},{"name":"Ringgold"},{"name":"Ringtown"},{"name":"Riverside"},{"name":"Rixford"},{"name":"Roaring Branch"},{"name":"Roaring Spring"},{"name":"Robertsdale"},{"name":"Robesonia"},{"name":"Robinson"},{"name":"Rochester"},{"name":"Rochester Mills"},{"name":"Rock Glen"},{"name":"Rockhill Furnace"},{"name":"Rockton"},{"name":"Rockwood"},{"name":"Rogersville"},{"name":"Rome"},{"name":"Ronco"},{"name":"Ronks"},{"name":"Roscoe"},{"name":"Rossiter"},{"name":"Rossville"},{"name":"Roulette"},{"name":"Rouseville"},{"name":"Rouzerville"},{"name":"Rowland"},{"name":"Roxbury"},{"name":"Royersford"},{"name":"Ruffs Dale"},{"name":"Rural Ridge"},{"name":"Rural Valley"},{"name":"Rushland"},{"name":"Rushville"},{"name":"Russell"},{"name":"Russellton"},{"name":"Sabinsville"},{"name":"Sacramento"},{"name":"Sadsburyville"},{"name":"Saegertown"},{"name":"Sagamore"},{"name":"Saint Benedict"},{"name":"Saint Boniface"},{"name":"Saint Clair"},{"name":"Saint Johns"},{"name":"Saint Marys"},{"name":"Saint Michael"},{"name":"Saint Peters"},{"name":"Saint Petersburg"},{"name":"Saint Thomas"},{"name":"Salford"},{"name":"Salfordville"},{"name":"Salina"},{"name":"Salisbury"},{"name":"Salix"},{"name":"Salona"},{"name":"Saltillo"},{"name":"Saltsburg"},{"name":"Sandy Lake"},{"name":"Sandy Ridge"},{"name":"Sarver"},{"name":"Sassamansville"},{"name":"Saxonburg"},{"name":"Saxton"},{"name":"Saylorsburg"},{"name":"Sayre"},{"name":"Scenery Hill"},{"name":"Schaefferstown"},{"name":"Schellsburg"},{"name":"Schenley"},{"name":"Schnecksville"},{"name":"Schuylkill Haven"},{"name":"Schwenksville"},{"name":"Sciota"},{"name":"Scotland"},{"name":"Scotrun"},{"name":"Scottdale"},{"name":"Scranton"},{"name":"Seanor"},{"name":"Selinsgrove"},{"name":"Sellersville"},{"name":"Seltzer"},{"name":"Seminole"},{"name":"Seneca"},{"name":"Seven Valleys"},{"name":"Seward"},{"name":"Sewickley"},{"name":"Shade Gap"},{"name":"Shady Grove"},{"name":"Shamokin"},{"name":"Shamokin Dam"},{"name":"Shanksville"},{"name":"Sharon"},{"name":"Sharon Hill"},{"name":"Sharpsville"},{"name":"Shartlesville"},{"name":"Shawanese"},{"name":"Shawnee on Delaware"},{"name":"Shawville"},{"name":"Sheakleyville"},{"name":"Sheffield"},{"name":"Shelocta"},{"name":"Shenandoah"},{"name":"Sheppton"},{"name":"Shermans Dale"},{"name":"Shickshinny"},{"name":"Shillington"},{"name":"Shinglehouse"},{"name":"Shippensburg"},{"name":"Shippenville"},{"name":"Shippingport"},{"name":"Shirleysburg"},{"name":"Shoemakersville"},{"name":"Shohola"},{"name":"Shrewsbury"},{"name":"Shunk"},{"name":"Sidman"},{"name":"Sigel"},{"name":"Silverdale"},{"name":"Silver Spring"},{"name":"Sinking Spring"},{"name":"Sinnamahoning"},{"name":"Sipesville"},{"name":"Six Mile Run"},{"name":"Skippack"},{"name":"Skytop"},{"name":"Slatedale"},{"name":"Slate Run"},{"name":"Slatington"},{"name":"Slickville"},{"name":"Sligo"},{"name":"Slippery Rock"},{"name":"Slovan"},{"name":"Smethport"},{"name":"Smicksburg"},{"name":"Smithfield"},{"name":"Smithmill"},{"name":"Smithton"},{"name":"Smock"},{"name":"Smokerun"},{"name":"Smoketown"},{"name":"Snow Shoe"},{"name":"Snydersburg"},{"name":"Snydertown"},{"name":"Solebury"},{"name":"Somerset"},{"name":"Sonestown"},{"name":"Soudersburg"},{"name":"Souderton"},{"name":"South Canaan"},{"name":"Southeastern"},{"name":"South Fork"},{"name":"South Gibson"},{"name":"South Heights"},{"name":"South Montrose"},{"name":"South Mountain"},{"name":"South Sterling"},{"name":"Southview"},{"name":"Southwest"},{"name":"Spangler"},{"name":"Spartansburg"},{"name":"Spinnerstown"},{"name":"Spraggs"},{"name":"Sprankle Mills"},{"name":"Springboro"},{"name":"Spring Church"},{"name":"Spring City"},{"name":"Spring Creek"},{"name":"Springdale"},{"name":"Springfield"},{"name":"Spring Glen"},{"name":"Spring Grove"},{"name":"Spring House"},{"name":"Spring Mills"},{"name":"Spring Mount"},{"name":"Spring Run"},{"name":"Springs"},{"name":"Springtown"},{"name":"Springville"},{"name":"Sproul"},{"name":"Spruce Creek"},{"name":"Stahlstown"},{"name":"Starford"},{"name":"Star Junction"},{"name":"Starlight"},{"name":"Starrucca"},{"name":"State College"},{"name":"State Line"},{"name":"Steelton"},{"name":"Steelville"},{"name":"Sterling"},{"name":"Stevens"},{"name":"Stevensville"},{"name":"Stewartstown"},{"name":"Stillwater"},{"name":"Stockdale"},{"name":"Stockertown"},{"name":"Stoneboro"},{"name":"Stony Run"},{"name":"Stoystown"},{"name":"Strabane"},{"name":"Strasburg"},{"name":"Strattanville"},{"name":"Strausstown"},{"name":"Strongstown"},{"name":"Stroudsburg"},{"name":"Stump Creek"},{"name":"Sturgeon"},{"name":"Sugar Grove"},{"name":"Sugarloaf"},{"name":"Sugar Run"},{"name":"Summerdale"},{"name":"Summerhill"},{"name":"Summerville"},{"name":"Summit Hill"},{"name":"Summit Station"},{"name":"Sumneytown"},{"name":"Sunbury"},{"name":"Suplee"},{"name":"Susquehanna"},{"name":"Sutersville"},{"name":"Swarthmore"},{"name":"Sweet Valley"},{"name":"Swengel"},{"name":"Swiftwater"},{"name":"Sybertsville"},{"name":"Sycamore"},{"name":"Sykesville"},{"name":"Sylvania"},{"name":"Tafton"},{"name":"Talmage"},{"name":"Tamaqua"},{"name":"Tamiment"},{"name":"Tannersville"},{"name":"Tarentum"},{"name":"Tarrs"},{"name":"Tatamy"},{"name":"Taylor"},{"name":"Taylorstown"},{"name":"Telford"},{"name":"Temple"},{"name":"Templeton"},{"name":"Terre Hill"},{"name":"Thomasville"},{"name":"Thompson"},{"name":"Thompsontown"},{"name":"Thorndale"},{"name":"Thornton"},{"name":"Three Springs"},{"name":"Tidioute"},{"name":"Timblin"},{"name":"Tioga"},{"name":"Tiona"},{"name":"Tionesta"},{"name":"Tipton"},{"name":"Tire Hill"},{"name":"Titusville"},{"name":"Tobyhanna"},{"name":"Todd"},{"name":"Topton"},{"name":"Torrance"},{"name":"Toughkenamon"},{"name":"Towanda"},{"name":"Tower City"},{"name":"Townville"},{"name":"Trafford"},{"name":"Transfer"},{"name":"Treichlers"},{"name":"Tremont"},{"name":"Tresckow"},{"name":"Trevorton"},{"name":"Trevose"},{"name":"Trexlertown"},{"name":"Trout Run"},{"name":"Troutville"},{"name":"Troxelville"},{"name":"Troy"},{"name":"Trucksville"},{"name":"Trumbauersville"},{"name":"Tunkhannock"},{"name":"Turbotville"},{"name":"Turkey City"},{"name":"Turtle Creek"},{"name":"Turtlepoint"},{"name":"Tuscarora"},{"name":"Twin Rocks"},{"name":"Tyler Hill"},{"name":"Tylersburg"},{"name":"Tylersport"},{"name":"Tylersville"},{"name":"Tyrone"},{"name":"Uledi"},{"name":"Ulster"},{"name":"Ulysses"},{"name":"Union City"},{"name":"Union Dale"},{"name":"Uniontown"},{"name":"Unionville"},{"name":"United"},{"name":"Unity House"},{"name":"Unityville"},{"name":"University Park"},{"name":"Upper Black Eddy"},{"name":"Upper Darby"},{"name":"Upperstrasburg"},{"name":"Ursina"},{"name":"Utica"},{"name":"Uwchland"},{"name":"Valencia"},{"name":"Valier"},{"name":"Valley Forge"},{"name":"Valley View"},{"name":"Vanderbilt"},{"name":"Vandergrift"},{"name":"Van Voorhis"},{"name":"Venango"},{"name":"Venetia"},{"name":"Venus"},{"name":"Verona"},{"name":"Vestaburg"},{"name":"Vicksburg"},{"name":"Villa Maria"},{"name":"Villanova"},{"name":"Vintondale"},{"name":"Virginville"},{"name":"Volant"},{"name":"Vowinckel"},{"name":"Wagontown"},{"name":"Wallaceton"},{"name":"Wallingford"},{"name":"Walnut Bottom"},{"name":"Walnutport"},{"name":"Walston"},{"name":"Waltersburg"},{"name":"Wampum"},{"name":"Wapwallopen"},{"name":"Warfordsburg"},{"name":"Warminster"},{"name":"Warren"},{"name":"Warren Center"},{"name":"Warrendale"},{"name":"Warrington"},{"name":"Warriors Mark"},{"name":"Washington"},{"name":"Washington Boro"},{"name":"Washington Crossing"},{"name":"Washingtonville"},{"name":"Waterfall"},{"name":"Waterford"},{"name":"Waterville"},{"name":"Watsontown"},{"name":"Wattsburg"},{"name":"Waverly"},{"name":"Waymart"},{"name":"Wayne"},{"name":"Waynesboro"},{"name":"Waynesburg"},{"name":"Weatherly"},{"name":"Webster"},{"name":"Weedville"},{"name":"Weikert"},{"name":"Wellersburg"},{"name":"Wellsboro"},{"name":"Wells Tannery"},{"name":"Wellsville"},{"name":"Wendel"},{"name":"Wernersville"},{"name":"Wescosville"},{"name":"West Alexander"},{"name":"West Chester"},{"name":"West Decatur"},{"name":"West Elizabeth"},{"name":"Westfield"},{"name":"West Finley"},{"name":"West Grove"},{"name":"West Hickory"},{"name":"Westland"},{"name":"West Lawn"},{"name":"West Lebanon"},{"name":"West Leisenring"},{"name":"Westline"},{"name":"West Middlesex"},{"name":"West Middletown"},{"name":"West Mifflin"},{"name":"West Milton"},{"name":"Westmoreland City"},{"name":"West Newton"},{"name":"Weston"},{"name":"Westover"},{"name":"West Pittsburg"},{"name":"West Pittston"},{"name":"West Point"},{"name":"Westport"},{"name":"West Reading"},{"name":"West Salisbury"},{"name":"West Springfield"},{"name":"West Sunbury"},{"name":"Westtown"},{"name":"West Willow"},{"name":"Wexford"},{"name":"Wheatland"},{"name":"White"},{"name":"White Deer"},{"name":"Whitehall"},{"name":"White Haven"},{"name":"White Mills"},{"name":"White Oak"},{"name":"Whitney"},{"name":"Wickhaven"},{"name":"Wiconisco"},{"name":"Widnoon"},{"name":"Wilburton"},{"name":"Wilcox"},{"name":"Wildwood"},{"name":"Wilkes-Barre"},{"name":"Williamsburg"},{"name":"Williamson"},{"name":"Williamsport"},{"name":"Williamstown"},{"name":"Willow Grove"},{"name":"Willow Hill"},{"name":"Willow Street"},{"name":"Wilmerding"},{"name":"Wilmore"},{"name":"Winburne"},{"name":"Windber"},{"name":"Wind Gap"},{"name":"Wind Ridge"},{"name":"Windsor"},{"name":"Winfield"},{"name":"Witmer"},{"name":"Womelsdorf"},{"name":"Wood"},{"name":"Woodbury"},{"name":"Woodland"},{"name":"Woodlyn"},{"name":"Woodward"},{"name":"Woolrich"},{"name":"Worcester"},{"name":"Worthington"},{"name":"Worthville"},{"name":"Woxall"},{"name":"Wrightsville"},{"name":"Wyalusing"},{"name":"Wyano"},{"name":"Wycombe"},{"name":"Wyncote"},{"name":"Wynnewood"},{"name":"Wyoming"},{"name":"Wyomissing"},{"name":"Wysox"},{"name":"Yardley"},{"name":"Yatesboro"},{"name":"Yeagertown"},{"name":"York"},{"name":"York Haven"},{"name":"York New Salem"},{"name":"York Springs"},{"name":"Youngstown"},{"name":"Youngsville"},{"name":"Youngwood"},{"name":"Yukon"},{"name":"Zelienople"},{"name":"Zieglerville"},{"name":"Zion Grove"},{"name":"Zionhill"},{"name":"Zionsville"},{"name":"Zullinger"}
]}
