{
    "swagger": "2.0",
    "info": {
        "description": "The Dumpster service will provide SMS messaging and binary storage services to users.  Welcome to the API for Dumpster. Dumpster is your personal place to dump anything. With Dumpster only you can decide what gets removed, and like the real world dumpsters, you can later find great things of value by going dumpster diving. Dumpster will support several special items and will even automatically store many of your cloud sourced things including SMS messages and binary media files. The following API can be used for managing you SMS messages and binary media files in your personal Dumpster. Like all good dumpsters, your Dumpster search capabilities will allow you to go dumpster diving to find those highly valued messages when ever you want them. Its quick, easy and its always there.  The Dev server IP is 64.15.190.244.  The Production server IP is 64.15.189.209",
        "version": "10.4.2",
        "title": "Dumpster API"
    },
    "basePath": "/v1",
    "schemes": [
        "http"
    ],
    "consumes": [
        "application/json"
    ],
    "produces": [
        "application/json"
    ],
    "paths": {
        "/version": {
            "get": {
                "tags": [
                    "Dumpster Utilities"
                ],
                "summary": "Displays Current Version",
                "description": "Displays Current Version.",
                "parameters": [
                    {
                        "name": "AccountName",
                        "in": "header",
                        "description": "User Authorization",
                        "required": true,
                        "type": "string"
                    },
                    {
                        "name": "SeatId",
                        "in": "header",
                        "description": "User Authorization",
                        "required": true,
                        "type": "string"
                    },
                    {
                        "name": "CorrelationId",
                        "in": "header",
                        "description": "CorrelationId",
                        "required": false,
                        "type": "string",
                        "format": "uuid"
                    }
                ],
                "responses": {
                    "200": {
                        "description": "Current Version.",
                        "schema": {
                            "type": "object",
                            "$ref": "#/definitions/Version"
                        }
                    },
                    "400": {
                        "description": "Bad Request",
                        "schema": {
                            "type": "object",
                            "$ref": "#/definitions/BadRequest"
                        }
                    },
                    "401": {
                        "description": "Missing or Unauthorized User"
                    },
                    "404": {
                        "description": "Not Found",
                        "schema": {
                            "type": "object",
                            "$ref": "#/definitions/NotFound"
                        }
                    },
                    "408": {
                        "description": "Request Timeout",
                        "schema": {
                            "type": "object",
                            "$ref": "#/definitions/RequestTimeOut"
                        }
                    },
                    "502": {
                        "description": "Bad Gateway",
                        "schema": {
                            "type": "object",
                            "$ref": "#/definitions/BadGateway"
                        }
                    },
                    "503": {
                        "description": "Service Unavailable - If Dumpster database is unavailable.",
                        "schema": {
                            "type": "object",
                            "$ref": "#/definitions/ServiceUnavailable"
                        }
                    }
                }
            }
        },
        "/metrics": {
            "get": {
                "tags": [
                    "Dumpster Utilities"
                ],
                "summary": "Displays Current Metrics",
                "description": "Displays Current Metrics.",
                "parameters": [
                    {
                        "name": "AccountName",
                        "in": "header",
                        "description": "User Authorization",
                        "required": true,
                        "type": "string"
                    },
                    {
                        "name": "SeatId",
                        "in": "header",
                        "description": "User Authorization",
                        "required": true,
                        "type": "string"
                    },
                    {
                        "name": "CorrelationId",
                        "in": "header",
                        "description": "CorrelationId",
                        "required": false,
                        "type": "string",
                        "format": "uuid"
                    }
                ],
                "responses": {
                    "200": {
                        "description": "Current Metrics.",
                        "schema": {
                            "type": "object",
                            "$ref": "#/definitions/Metrics"
                        }
                    },
                    "400": {
                        "description": "Bad Request",
                        "schema": {
                            "type": "object",
                            "$ref": "#/definitions/BadRequest"
                        }
                    },
                    "401": {
                        "description": "Missing or Unauthorized User"
                    },
                    "404": {
                        "description": "Not Found",
                        "schema": {
                            "type": "object",
                            "$ref": "#/definitions/NotFound"
                        }
                    },
                    "408": {
                        "description": "Request Timeout",
                        "schema": {
                            "type": "object",
                            "$ref": "#/definitions/RequestTimeOut"
                        }
                    },
                    "502": {
                        "description": "Bad Gateway",
                        "schema": {
                            "type": "object",
                            "$ref": "#/definitions/BadGateway"
                        }
                    },
                    "503": {
                        "description": "Service Unavailable - If Dumpster database is unavailable.",
                        "schema": {
                            "type": "object",
                            "$ref": "#/definitions/ServiceUnavailable"
                        }
                    }
                }
            }
        },
        "/sms": {
            "get": {
                "tags": [
                    "Dumpster SMS Basic Operations"
                ],
                "summary": "Provides all SMS Messages or SMS messages specified by the query, limit, offset and sort parameters for the given AccountName.",
                "description": "Provides all SMS Messages or SMS messages specified by the query, limit, offset and sort parameters for the given AccountName.",
                "parameters": [
                    {
                        "name": "AccountName",
                        "in": "header",
                        "description": "User Authorization",
                        "required": true,
                        "type": "string"
                    },
                    {
                        "name": "SeatId",
                        "in": "header",
                        "description": "User Authorization",
                        "required": true,
                        "type": "string"
                    },
                    {
                        "name": "CorrelationId",
                        "in": "header",
                        "description": "CorrelationId",
                        "required": false,
                        "type": "string",
                        "format": "uuid"
                    },
                    {
                        "name": "query",
                        "in": "query",
                        "description": "The query string, query=anyFieldName:anyFieldValue for the SMS messages is being requested.Example: query=from:vijay or query=from:vijay AND to:bruce or query=from:\"vijay bhaskar\"",
                        "required": false,
                        "type": "string"
                    },
                    {
                        "name": "limit",
                        "in": "query",
                        "description": "The limit of the number of records to return in the response Default limit=10 and max limit=100.",
                        "required": false,
                        "type": "string"
                    },
                    {
                        "name": "offset",
                        "in": "query",
                        "description": "The offset of the 1st record to return in the response. Example if user have 100 messages then limit=10 and offset=98. Then on response you will see 2 messages.",
                        "required": false,
                        "type": "string"
                    },
                    {
                        "name": "sort",
                        "in": "query",
                        "description": "The field name on which to sort the SMS Messages returned.",
                        "required": false,
                        "type": "string"
                    },
                    {
                        "name": "pretty",
                        "in": "query",
                        "description": "Return the JSON response body in pretty format.  Valid values are true/false.",
                        "required": false,
                        "type": "string"
                    }
                ],
                "responses": {
                    "200": {
                        "description": "An array of all SMS Messages for AccountName.",
                        "schema": {
                            "type": "object",
                            "$ref": "#/definitions/AllSMSMsgs"
                        }
                    },
                    "400": {
                        "description": "Bad Request",
                        "schema": {
                            "type": "object",
                            "$ref": "#/definitions/BadRequest"
                        }
                    },
                    "401": {
                        "description": "Missing or Unauthorized User"
                    },
                    "403": {
                        "description": "Forbidden. On Query accountName or dumpsterId not be used, these are reserved attribute names.",
                        "schema": {
                            "type": "object",
                            "$ref": "#/definitions/Forbidden"
                        }
                    },
                    "404": {
                        "description": "Not Found",
                        "schema": {
                            "type": "object",
                            "$ref": "#/definitions/NotFound"
                        }
                    },
                    "408": {
                        "description": "Request Timeout",
                        "schema": {
                            "type": "object",
                            "$ref": "#/definitions/RequestTimeOut"
                        }
                    },
                    "502": {
                        "description": "Bad Gateway",
                        "schema": {
                            "type": "object",
                            "$ref": "#/definitions/BadGateway"
                        }
                    },
                    "503": {
                        "description": "Service Unavailable - If Dumpster database is unavailable.",
                        "schema": {
                            "type": "object",
                            "$ref": "#/definitions/ServiceUnavailable"
                        }
                    }
                }
            },
            "post": {
                "tags": [
                    "Dumpster SMS Basic Operations"
                ],
                "summary": "Creates an SMS Message for the given AccountName",
                "description": "Creates an SMS Message for the given AccountName",
                "parameters": [
                    {
                        "name": "AccountName",
                        "in": "header",
                        "description": "User Authorization",
                        "required": true,
                        "type": "string"
                    },
                    {
                        "name": "SeatId",
                        "in": "header",
                        "description": "User Authorization",
                        "required": true,
                        "type": "string"
                    },
                    {
                        "name": "CorrelationId",
                        "in": "header",
                        "description": "CorrelationId",
                        "required": false,
                        "type": "string",
                        "format": "uuid"
                    },
                    {
                        "name": "SMSMsgBody",
                        "in": "body",
                        "description": "The SMS Msg Body",
                        "required": true,
                        "schema": {
                            "$ref": "#/definitions/SMSMsgBody"
                        }
                    }
                ],
                "responses": {
                    "201": {
                        "description": "Created with no body",
                        "schema": {
                            "type": "object",
                            "$ref": "#/definitions/POSTPUTSuccessResponseHeaders"
                        }
                    },
                    "400": {
                        "description": "Bad Request",
                        "schema": {
                            "type": "object",
                            "$ref": "#/definitions/BadRequest"
                        }
                    },
                    "401": {
                        "description": "Missing or Unauthorized User"
                    },
                    "404": {
                        "description": "Not Found",
                        "schema": {
                            "type": "object",
                            "$ref": "#/definitions/NotFound"
                        }
                    },
                    "408": {
                        "description": "Request Timeout",
                        "schema": {
                            "type": "object",
                            "$ref": "#/definitions/RequestTimeOut"
                        }
                    },
                    "502": {
                        "description": "Bad Gateway",
                        "schema": {
                            "type": "object",
                            "$ref": "#/definitions/BadGateway"
                        }
                    },
                    "503": {
                        "description": "Service Unavailable - If Dumpster database is unavailable.",
                        "schema": {
                            "type": "object",
                            "$ref": "#/definitions/ServiceUnavailable"
                        }
                    }
                }
            },
            "delete": {
                "tags": [
                    "Dumpster SMS Basic Operations"
                ],
                "summary": "DELETEs all SMS Messages or SMS messages specified by the query parameter for the given AccountName.",
                "description": "DELETEs all SMS Messages or SMS messages specified by the query parameter for the given AccountName.",
                "parameters": [
                    {
                        "name": "AccountName",
                        "in": "header",
                        "description": "User Authorization",
                        "required": true,
                        "type": "string"
                    },
                    {
                        "name": "SeatId",
                        "in": "header",
                        "description": "User Authorization",
                        "required": true,
                        "type": "string"
                    },
                    {
                        "name": "CorrelationId",
                        "in": "header",
                        "description": "CorrelationId",
                        "required": false,
                        "type": "string",
                        "format": "uuid"
                    },
                    {
                        "name": "query",
                        "in": "query",
                        "description": "The query string, query=anyFieldName=anyFieldValue for the SMS messages is being requested.",
                        "required": false,
                        "type": "string"
                    }
                ],
                "responses": {
                    "200": {
                        "description": "For case all messages deleted. Then response we providde total count is zero.",
                        "schema": {
                            "type": "object",
                            "$ref": "#/definitions/DeleteAllMessages"
                        }
                    },
                    "202": {
                        "description": "Accepted"
                    },
                    "400": {
                        "description": "Bad Request",
                        "schema": {
                            "type": "object",
                            "$ref": "#/definitions/BadRequest"
                        }
                    },
                    "401": {
                        "description": "Missing or Unauthorized User"
                    },
                    "403": {
                        "description": "Forbidden. On Query accountName or dumpsterId not be used, these are reserved attribute names.",
                        "schema": {
                            "type": "object",
                            "$ref": "#/definitions/Forbidden"
                        }
                    },
                    "404": {
                        "description": "Not Found",
                        "schema": {
                            "type": "object",
                            "$ref": "#/definitions/NotFound"
                        }
                    },
                    "408": {
                        "description": "Request Timeout",
                        "schema": {
                            "type": "object",
                            "$ref": "#/definitions/RequestTimeOut"
                        }
                    },
                    "502": {
                        "description": "Bad Gateway",
                        "schema": {
                            "type": "object",
                            "$ref": "#/definitions/BadGateway"
                        }
                    },
                    "503": {
                        "description": "Service Unavailable - If Dumpster database is unavailable.",
                        "schema": {
                            "type": "object",
                            "$ref": "#/definitions/ServiceUnavailable"
                        }
                    }
                }
            }
        },
        "/sms/{key}": {
            "get": {
                "tags": [
                    "Dumpster SMS Operations by key"
                ],
                "summary": "Provides all SMS Messages for the given key.",
                "description": "Provides All SMS Messages for the given key.",
                "parameters": [
                    {
                        "name": "AccountName",
                        "in": "header",
                        "description": "User Authorization",
                        "required": true,
                        "type": "string"
                    },
                    {
                        "name": "SeatId",
                        "in": "header",
                        "description": "User Authorization",
                        "required": true,
                        "type": "string"
                    },
                    {
                        "name": "CorrelationId",
                        "in": "header",
                        "description": "CorrelationId",
                        "required": false,
                        "type": "string",
                        "format": "uuid"
                    },
                    {
                        "name": "key",
                        "in": "path",
                        "description": "User Authorization",
                        "required": true,
                        "type": "string"
                    }
                ],
                "responses": {
                    "200": {
                        "description": "The SMS Message for given key.",
                        "schema": {
                            "type": "object",
                            "$ref": "#/definitions/OneSMSMsgResp"
                        }
                    },
                    "400": {
                        "description": "Bad Request",
                        "schema": {
                            "type": "object",
                            "$ref": "#/definitions/BadRequest"
                        }
                    },
                    "401": {
                        "description": "Missing or Unauthorized User"
                    },
                    "403": {
                        "description": "Forbidden. On Query accountName or dumpsterId not be used, these are reserved attribute names.",
                        "schema": {
                            "type": "object",
                            "$ref": "#/definitions/Forbidden"
                        }
                    },
                    "404": {
                        "description": "Not Found",
                        "schema": {
                            "type": "object",
                            "$ref": "#/definitions/NotFound"
                        }
                    },
                    "408": {
                        "description": "Request Timeout",
                        "schema": {
                            "type": "object",
                            "$ref": "#/definitions/RequestTimeOut"
                        }
                    },
                    "502": {
                        "description": "Bad Gateway",
                        "schema": {
                            "type": "object",
                            "$ref": "#/definitions/BadGateway"
                        }
                    },
                    "503": {
                        "description": "Service Unavailable - If Dumpster database is unavailable.",
                        "schema": {
                            "type": "object",
                            "$ref": "#/definitions/ServiceUnavailable"
                        }
                    }
                }
            },
            "put": {
                "tags": [
                    "Dumpster SMS Operations by key"
                ],
                "summary": "Updates an existing SMS Message by Msg key.",
                "description": "Updates an SMS Message by Msg key, either an existing msg key from a previous POST or a new user defined key.  A message for an existing key will update the existing message to the new message. A message with a new user defined key will create a new message with the given key.",
                "parameters": [
                    {
                        "name": "AccountName",
                        "in": "header",
                        "description": "User Authorization",
                        "required": true,
                        "type": "string"
                    },
                    {
                        "name": "SeatId",
                        "in": "header",
                        "description": "User Authorization",
                        "required": true,
                        "type": "string"
                    },
                    {
                        "name": "Content-Type",
                        "in": "header",
                        "description": "Must be application/json",
                        "required": true,
                        "type": "string"
                    },
                    {
                        "name": "CorrelationId",
                        "in": "header",
                        "description": "CorrelationId",
                        "required": false,
                        "type": "string",
                        "format": "uuid"
                    },
                    {
                        "name": "key",
                        "in": "path",
                        "description": "User Authorization",
                        "required": true,
                        "type": "string"
                    },
                    {
                        "name": "SMSMsgBody",
                        "in": "body",
                        "description": "The SMS Msg Body",
                        "required": true,
                        "schema": {
                            "$ref": "#/definitions/SMSMsgBody"
                        }
                    }
                ],
                "responses": {
                    "201": {
                        "description": "Created with no body",
                        "schema": {
                            "type": "object",
                            "$ref": "#/definitions/POSTPUTSuccessResponseHeaders"
                        }
                    },
                    "400": {
                        "description": "Bad Request",
                        "schema": {
                            "type": "object",
                            "$ref": "#/definitions/BadRequest"
                        }
                    },
                    "401": {
                        "description": "Missing or Unauthorized User"
                    },
                    "404": {
                        "description": "Not Found",
                        "schema": {
                            "type": "object",
                            "$ref": "#/definitions/NotFound"
                        }
                    },
                    "408": {
                        "description": "Request Timeout",
                        "schema": {
                            "type": "object",
                            "$ref": "#/definitions/RequestTimeOut"
                        }
                    },
                    "502": {
                        "description": "Bad Gateway",
                        "schema": {
                            "type": "object",
                            "$ref": "#/definitions/BadGateway"
                        }
                    },
                    "503": {
                        "description": "Service Unavailable - If Dumpster database is unavailable.",
                        "schema": {
                            "type": "object",
                            "$ref": "#/definitions/ServiceUnavailable"
                        }
                    }
                }
            },
            "delete": {
                "tags": [
                    "Dumpster SMS Operations by key"
                ],
                "summary": "Deletes an SMS Message for the given message key",
                "description": "Deletes an SMS Message for the given message key",
                "parameters": [
                    {
                        "name": "AccountName",
                        "in": "header",
                        "description": "User Authorization",
                        "required": true,
                        "type": "string"
                    },
                    {
                        "name": "SeatId",
                        "in": "header",
                        "description": "User Authorization",
                        "required": true,
                        "type": "string"
                    },
                    {
                        "name": "CorrelationId",
                        "in": "header",
                        "description": "CorrelationId",
                        "required": false,
                        "type": "string",
                        "format": "uuid"
                    },
                    {
                        "name": "key",
                        "in": "path",
                        "description": "User Authorization",
                        "required": true,
                        "type": "string"
                    }
                ],
                "responses": {
                    "202": {
                        "description": "No Content Response"
                    },
                    "400": {
                        "description": "Bad Request",
                        "schema": {
                            "type": "object",
                            "$ref": "#/definitions/BadRequest"
                        }
                    },
                    "401": {
                        "description": "Missing or Unauthorized User"
                    },
                    "403": {
                        "description": "Forbidden. On Query accountName or dumpsterId not be used, these are reserved attribute names.",
                        "schema": {
                            "type": "object",
                            "$ref": "#/definitions/Forbidden"
                        }
                    },
                    "404": {
                        "description": "Not Found",
                        "schema": {
                            "type": "object",
                            "$ref": "#/definitions/NotFound"
                        }
                    },
                    "408": {
                        "description": "Request Timeout",
                        "schema": {
                            "type": "object",
                            "$ref": "#/definitions/RequestTimeOut"
                        }
                    },
                    "502": {
                        "description": "Bad Gateway",
                        "schema": {
                            "type": "object",
                            "$ref": "#/definitions/BadGateway"
                        }
                    },
                    "503": {
                        "description": "Service Unavailable - If Dumpster database is unavailable.",
                        "schema": {
                            "type": "object",
                            "$ref": "#/definitions/ServiceUnavailable"
                        }
                    }
                }
            }
        },
        "/media/{key}": {
            "get": {
                "tags": [
                    "Dumpster Media Basic Operations"
                ],
                "summary": "Provides the binary media object identified by the key for the given AccountName.",
                "description": "Provides the binary media object identified by the key for the given AccountName.",
                "parameters": [
                    {
                        "name": "AccountName",
                        "in": "header",
                        "description": "User Authorization",
                        "required": true,
                        "type": "string"
                    },
                    {
                        "name": "SeatId",
                        "in": "header",
                        "description": "User Authorization",
                        "required": true,
                        "type": "string"
                    },
                    {
                        "name": "key",
                        "in": "path",
                        "description": "User Authorization",
                        "required": true,
                        "type": "string"
                    }
                ],
                "responses": {
                    "200": {
                        "description": "OK",
                        "schema": {
                            "type": "object",
                            "$ref": "#/definitions/MediaObject"
                        }
                    },
                    "400": {
                        "description": "Bad Request",
                        "schema": {
                            "type": "object",
                            "$ref": "#/definitions/BadRequest"
                        }
                    },
                    "401": {
                        "description": "Missing or Unauthorized User"
                    },
                    "404": {
                        "description": "Not Found",
                        "schema": {
                            "type": "object",
                            "$ref": "#/definitions/NotFound"
                        }
                    },
                    "408": {
                        "description": "Request Timeout",
                        "schema": {
                            "type": "object",
                            "$ref": "#/definitions/RequestTimeOut"
                        }
                    },
                    "502": {
                        "description": "Bad Gateway",
                        "schema": {
                            "type": "object",
                            "$ref": "#/definitions/BadGateway"
                        }
                    },
                    "503": {
                        "description": "Service Unavailable - If Dumpster database is unavailable.",
                        "schema": {
                            "type": "object",
                            "$ref": "#/definitions/ServiceUnavailable"
                        }
                    }
                }
            },
            "put": {
                "tags": [
                    "Dumpster Media Basic Operations"
                ],
                "summary": "Stores the binary media ojbect provided under the key provided for the given AccountName.",
                "description": "Stores the binary media ojbect provided under the key provided for the given AccountName.",
                "parameters": [
                    {
                        "name": "AccountName",
                        "in": "header",
                        "description": "User Authorization",
                        "required": true,
                        "type": "string"
                    },
                    {
                        "name": "SeatId",
                        "in": "header",
                        "description": "User Authorization",
                        "required": true,
                        "type": "string"
                    },
                    {
                        "name": "Content-Type",
                        "in": "header",
                        "description": "Media Content-Type header that must match the actual binary media file.",
                        "required": true,
                        "type": "string"
                    },
                    {
                        "name": "key",
                        "in": "path",
                        "description": "User Authorization",
                        "required": true,
                        "type": "string"
                    },
                    {
                        "name": "mediaFile",
                        "in": "body",
                        "description": "media file",
                        "required": true,
                        "schema": {
                            "type": "file",
                            "$ref": "#/definitions/MediaObject"
                        }
                    }
                ],
                "responses": {
                    "201": {
                        "description": "Created with no body",
                        "schema": {
                            "type": "object",
                            "$ref": "#/definitions/PUTSuccessResponseHeaders"
                        }
                    },
                    "400": {
                        "description": "Bad Request",
                        "schema": {
                            "type": "object",
                            "$ref": "#/definitions/BadRequest"
                        }
                    },
                    "401": {
                        "description": "Missing or Unauthorized User"
                    },
                    "404": {
                        "description": "Not Found",
                        "schema": {
                            "type": "object",
                            "$ref": "#/definitions/NotFound"
                        }
                    },
                    "408": {
                        "description": "Request Timeout",
                        "schema": {
                            "type": "object",
                            "$ref": "#/definitions/RequestTimeOut"
                        }
                    },
                    "502": {
                        "description": "Bad Gateway",
                        "schema": {
                            "type": "object",
                            "$ref": "#/definitions/BadGateway"
                        }
                    },
                    "503": {
                        "description": "Service Unavailable - If Dumpster database is unavailable.",
                        "schema": {
                            "type": "object",
                            "$ref": "#/definitions/ServiceUnavailable"
                        }
                    }
                }
            },
            "delete": {
                "tags": [
                    "Dumpster Media Basic Operations"
                ],
                "summary": "DELETEs the binary media object identified by the key for the given AccountName.",
                "description": "DELETEs the binary media object identified by the key for the given AccountName.",
                "parameters": [
                    {
                        "name": "AccountName",
                        "in": "header",
                        "description": "User Authorization",
                        "required": true,
                        "type": "string"
                    },
                    {
                        "name": "SeatId",
                        "in": "header",
                        "description": "User Authorization",
                        "required": true,
                        "type": "string"
                    },
                    {
                        "name": "key",
                        "in": "path",
                        "description": "User Authorization",
                        "required": true,
                        "type": "string"
                    }
                ],
                "responses": {
                    "204": {
                        "description": "No Content"
                    },
                    "400": {
                        "description": "Bad Request",
                        "schema": {
                            "type": "object",
                            "$ref": "#/definitions/BadRequest"
                        }
                    },
                    "401": {
                        "description": "Missing or Unauthorized User"
                    },
                    "404": {
                        "description": "Not Found",
                        "schema": {
                            "type": "object",
                            "$ref": "#/definitions/NotFound"
                        }
                    },
                    "408": {
                        "description": "Request Timeout",
                        "schema": {
                            "type": "object",
                            "$ref": "#/definitions/RequestTimeOut"
                        }
                    },
                    "502": {
                        "description": "Bad Gateway",
                        "schema": {
                            "type": "object",
                            "$ref": "#/definitions/BadGateway"
                        }
                    },
                    "503": {
                        "description": "Service Unavailable - If Dumpster database is unavailable.",
                        "schema": {
                            "type": "object",
                            "$ref": "#/definitions/ServiceUnavailable"
                        }
                    }
                }
            }
        }
    },
    "definitions": {
        "Version": {
            "properties": {
                "Version": {
                    "type": "array",
                    "minimum": 0,
                    "maximum": 200,
                    "items": {
                        "type": "object",
                        "properties": {
                            "productName": {
                                "type": "string",
                                "description": "Provides the product name of current version."
                            },
                            "productVersion": {
                                "type": "string",
                                "description": "Provides the product Version of current version."
                            },
                            "productBuild": {
                                "type": "string",
                                "description": "Provides the product Build of current version."
                            },
                            "productCommitId": {
                                "type": "string",
                                "description": "Provides the product Commit ID of current version."
                            }
                        }
                    }
                }
            }
        },
        "Metrics": {
            "properties": {
                "Metrics": {
                    "type": "array",
                    "minimum": 0,
                    "maximum": 200,
                    "items": {
                        "type": "object",
                        "properties": {
                            "connect-requests": {
                                "type": "string",
                                "description": "Provides the current Dumpster connect-requests metrics."
                            },
                            "bytes-written": {
                                "type": "string",
                                "description": "Provides the current Dumpster bytes-written metrics."
                            },
                            "put-requests": {
                                "type": "string",
                                "description": "Provides the current Dumpster put-requests metrics."
                            },
                            "messages-sent": {
                                "type": "string",
                                "description": "Provides the current Dumpster messages-sent metrics."
                            },
                            "metrics-other": {
                                "type": "string",
                                "description": "Provides other Dumpster metrics."
                            }
                        }
                    }
                }
            }
        },
        "AllSMSMsgs": {
            "properties": {
                "next": {
                    "type": "string",
                    "description": "Next available messages. Optional field. example next \"/v1/sms?limit=3&offset=4&sort=from&pretty=true\"."
                },
                "prev": {
                    "type": "string",
                    "description": "Previous available messages. Optional field. example prev \"/v1/sms?limit=3&offset=0&sort=from&pretty=true\"."
                },
                "totalCount": {
                    "type": "number",
                    "description": "Total number of messages."
                },
                "count": {
                    "type": "number",
                    "description": "Response given count."
                },
                "sms": {
                    "type": "array",
                    "items": {
                        "type": "object",
                        "properties": {
                            "accountName": {
                                "type": "string",
                                "description": "User header provided AccountName."
                            },
                            "to": {
                                "type": "string",
                                "description": "to Required 1st Class Field"
                            },
                            "from": {
                                "type": "string",
                                "description": "from Required 1st Class Field"
                            },
                            "subject": {
                                "type": "string",
                                "description": "subject Optional Field"
                            },
                            "publicuser": {
                                "type": "string",
                                "description": "publicuser Optional Field"
                            },
                            "markedForDelete": {
                                "type": "string",
                                "description": "MarkedForDelete Optional Field, not used now."
                            },
                            "contentType": {
                                "type": "string",
                                "description": "ContentType is application json."
                            },
                            "tags": {
                                "type": "array",
                                "items": {
                                    "type": "object",
                                    "properties": {
                                        "artifact": {
                                            "type": "string",
                                            "description": "artifact type of artifact like sms, picture, video,message etc."
                                        },
                                        "message": {
                                            "type": "string",
                                            "description": "message type of  like sms, MMS, Audio etc."
                                        },
                                        "sms": {
                                            "type": "string",
                                            "description": "sms is one of the artifact type or message type ."
                                        }
                                    }
                                }
                            },
                            "dumpsterId": {
                                "type": "string",
                                "description": "SeatId from the POST header stored as dumpsterId, returned in the GET bodies."
                            },
                            "message": {
                                "type": "string",
                                "description": "message Required 1st Class Field"
                            },
                            "createDate": {
                                "type": "string",
                                "description": "Date created the message."
                            },
                            "key": {
                                "type": "string",
                                "description": "Unique Key assigned to the message."
                            }
                        }
                    }
                },
                "score": {
                    "type": "number",
                    "description": "Rating per results."
                }
            }
        },
        "OneSMSMsgResp": {
            "properties": {
                "accountName": {
                    "type": "string",
                    "description": "User header provided AccountName."
                },
                "to": {
                    "type": "string",
                    "description": "to Required 1st Class Field"
                },
                "from": {
                    "type": "string",
                    "description": "from Required 1st Class Field"
                },
                "subject": {
                    "type": "string",
                    "description": "subject Optional Field"
                },
                "publicuser": {
                    "type": "string",
                    "description": "publicuser Optional Field"
                },
                "markedForDelete": {
                    "type": "string",
                    "description": "MarkedForDelete Optional Field, not used now."
                },
                "contentType": {
                    "type": "string",
                    "description": "ContentType is application json."
                },
                "tags": {
                    "type": "array",
                    "description": "tags Optional Field",
                    "items": {
                        "type": "object",
                        "properties": {
                            "artifact": {
                                "type": "string",
                                "description": "artifact type of artifact like sms, picture, video,message etc."
                            },
                            "message": {
                                "type": "string",
                                "description": "message type of  like sms, MMS, Audio etc."
                            },
                            "sms": {
                                "type": "string",
                                "description": "sms is one of the artifact type or message type ."
                            }
                        }
                    }
                },
                "dumpsterId": {
                    "type": "string",
                    "description": "SeatId from the POST header stored as dumpsterId, returned in the GET bodies."
                },
                "message": {
                    "type": "string",
                    "description": "message Required 1st Class Field"
                },
                "createDate": {
                    "type": "string",
                    "description": "Date created the message."
                },
                "key": {
                    "type": "string",
                    "description": "Unique Key assigned to the message."
                }
            }
        },
        "SMSMsgBody": {
            "properties": {
                "to": {
                    "type": "string",
                    "description": "to Required 1st Class Field"
                },
                "from": {
                    "type": "string",
                    "description": "from Required 1st Class Field"
                },
                "subject": {
                    "type": "string",
                    "description": "subject Optional Field"
                },
                "message": {
                    "type": "string",
                    "description": "message Required 1st Class Field"
                }
            }
        },
        "MediaObject": {
            "properties": {
                "smsMsgs": {
                    "type": "object",
                    "minimum": 0,
                    "maximum": 9,
                    "properties": {
                        "sms": {
                            "type": "object",
                            "description": "A 200 OK with a Content-type header that must match the binary media file in the body."
                        }
                    }
                }
            }
        },
        "POSTPUTSuccessResponseHeaders": {
            "properties": {
                "Server": {
                    "type": "string",
                    "description": "Server Version number"
                },
                "Date": {
                    "type": "string",
                    "description": "Date"
                },
                "Connection": {
                    "type": "string",
                    "description": "Connection status - open/closed"
                },
                "Location": {
                    "type": "string",
                    "description": "A URL to the location of the stored object including key"
                },
                "x-response-time": {
                    "type": "string",
                    "description": "The response time"
                }
            }
        },
        "PUTSuccessResponseHeaders": {
            "properties": {
                "status": {
                    "type": "string",
                    "description": "Http status return code"
                },
                "Server": {
                    "type": "string",
                    "description": "Server Version number"
                },
                "Last-Modified": {
                    "type": "string",
                    "description": "Date"
                },
                "Date": {
                    "type": "string",
                    "description": "Date"
                },
                "Connection": {
                    "type": "string",
                    "description": "Connection type - keep-alive, etc."
                },
                "Content-Location": {
                    "type": "string",
                    "description": "A URL to the location of the stored object including key"
                },
                "Content-Type": {
                    "type": "string",
                    "description": "The content type - image/jpeg, etc."
                },
                "Content-Encoding": {
                    "type": "string",
                    "description": "The content encoding type - gzip, etc."
                },
                "Orchestrate-Source-Host": {
                    "type": "string",
                    "description": "The Orchestrate DB destination host"
                },
                "Orchestrate-Destination-Host": {
                    "type": "string",
                    "description": "The Orchestrate DB source host"
                }
            }
        },
        "DeleteAllMessages": {
            "type": "object",
            "properties": {
                "totalCount": {
                    "type": "number",
                    "description": "Zero. All messages are deleted "
                }
            }
        },
        "BadRequest": {
            "type": "object",
            "properties": {
                "developerMessage": {
                    "type": "string",
                    "description": "You have have provided an invalid body "
                },
                "moreInfo": {
                    "type": "string",
                    "description": "For More Information Refer to Swagger Document.",
                    "default": "http://localhost:8080/v1/placeholder/sms/docs/api/query/"
                }
            }
        },
        "Forbidden": {
            "type": "object",
            "properties": {
                "developerMessage": {
                    "type": "string",
                    "description": "The search query provided may NOT contain accountName or dumpsterId. "
                },
                "moreInfo": {
                    "type": "string",
                    "description": "For More Information Refer to Swagger Document.",
                    "default": "http://localhost:8080/v1/placeholder/sms/docs/api/query/"
                }
            }
        },
        "NotFound": {
            "properties": {
                "developerMessage": {
                    "type": "string",
                    "description": "Request is not Found"
                }
            }
        },
        "RequestTimeOut": {
            "properties": {
                "developerMessage": {
                    "type": "string",
                    "description": "Request Timeout "
                },
                "moreInfo": {
                    "type": "string",
                    "description": "For More Information Refer to Swagger Document.",
                    "default": "http://localhost:8080/v1/sms/placeholder/docs/api/query/"
                }
            }
        },
        "BadGateway": {
            "properties": {
                "developerMessage": {
                    "type": "string",
                    "description": "Upstream service is unavilable"
                },
                "moreInfo": {
                    "type": "string",
                    "description": "For More Information Refer to Swagger Document.",
                    "default": "http://localhost:8080/v1/placeholder/sms/docs/api/query/"
                }
            }
        },
        "ServiceUnavailable": {
            "properties": {
                "developerMessage": {
                    "type": "string",
                    "description": "Dumpster service is unavailable.  Please try again later "
                },
                "moreInfo": {
                    "type": "string",
                    "description": "For More Information Refer to Swagger Document.",
                    "default": "http://localhost:8080/v1/placeholder/sms/docs/api/query/"
                }
            }
        }
    }
}