{
   "swagger":"2.0",
   "info":{
      "description":"Provides API's for ACCOUNT/SEAT operations, interacts with multiple sub-systems CloudRegistry, Moniker, Dumpster.",
      "version":"1.1.1",
      "title":"OrderManagement",
      "contact":{
         "name":"Titans",
         "email":"QSSAFDEV@CenturyLink.com"
      }
   },
   "basePath":"/OrderManagement/api",
   "tags":[
      {
         "name":"AccountManagement API's"
      },
      {
         "name":"SeatManagement API's"
      }
   ],
   "schemes":[
      "http",
      "https"
   ],
   "consumes":[
      "application/json",
      "application/xml"
   ],
   "produces":[
      "application/json",
      "application/xml"
   ],
   "paths":{
      "/v1/account":{
         "get":{
            "tags":[
               "AccountManagement API's"
            ],
            "summary":"Fetch Account details for the given AccountName.",
            "description":"Reads Account with all the Seat information in the response, also supports pagination for the Seats if PageSize and PageNumber are provided in queryParam",
            "operationId":"readAccount",
            "produces":[
               "application/json"
            ],
            "parameters":[
               {
                  "name":"AccountName",
                  "in":"header",
                  "description":"case insensitive",
                  "required":true,
                  "type":"string"
               },
               {
                  "name":"PageSize",
                  "in":"query",
                  "required":false,
                  "type":"integer",
                  "format":"int32"
               },
               {
                  "name":"PageNumber",
                  "in":"query",
                  "required":false,
                  "type":"integer",
                  "format":"int32"
               },
               {
                  "name":"UseMock",
                  "in":"header",
                  "required":false,
                  "type":"boolean"
               },
               {
                  "name":"CorrelationId",
                  "in":"header",
                  "description":"Request tracking Id",
                  "required":false,
                  "type":"string"
               }
            ],
            "responses":{
               "200":{
                  "description":"Successful retrieval of Account details",
                  "schema":{
                     "$ref":"#/definitions/Account"
                  }
               },
               "400":{
                  "description":"The request sent by the client was syntactically incorrect, bad Request"
               },
               "500":{
                  "description":"OrderManagement internal error"
               },
               "502":{
                  "description":"Any Back-end related error, (time out, unknown errors from backend etc..) "
               },
               "404":{
                  "description":"Account not found"
               }
            }
         },
         "post":{
            "tags":[
               "AccountManagement API's"
            ],
            "summary":"Creates Account for the given AccountName",
            "description":"AccountName will get registered here.",
            "operationId":"createAccount",
            "consumes":[
               "application/json",
               "application/xml"
            ],
            "produces":[
               "application/json"
            ],
            "parameters":[
               {
                  "in":"body",
                  "name":"body",
                  "required":false,
                  "schema":{
                     "$ref":"#/definitions/AccountStatus"
                  }
               },
               {
                  "name":"AccountName",
                  "in":"header",
                  "description":"case insensitive",
                  "required":true,
                  "type":"string"
               },
               {
                  "name":"UseMock",
                  "in":"header",
                  "required":false,
                  "type":"boolean"
               },
               {
                  "name":"CorrelationId",
                  "in":"header",
                  "description":"Request tracking Id",
                  "required":false,
                  "type":"string"
               }
            ],
            "responses":{
               "201":{
                  "description":"Successfully created the Account information"
               },
               "400":{
                  "description":"The request sent by the client was syntactically incorrect, bad Request"
               },
               "500":{
                  "description":"OrderManagement internal error"
               },
               "502":{
                  "description":"Any Back-end related error, (time out, unknown errors from backend etc..) "
               },
               "409":{
                  "description":"Account already exists"
               }
            }
         },
         "put":{
            "tags":[
               "AccountManagement API's"
            ],
            "summary":"Update AccountStatus for the given AccountName",
            "description":"Updates AccountStatus for the given AccountName",
            "operationId":"updateAccount",
            "consumes":[
               "application/json",
               "application/xml"
            ],
            "produces":[
               "application/json"
            ],
            "parameters":[
               {
                  "in":"body",
                  "name":"body",
                  "required":false,
                  "schema":{
                     "$ref":"#/definitions/AccountStatus"
                  }
               },
               {
                  "name":"AccountName",
                  "in":"header",
                  "description":"case insensitive",
                  "required":true,
                  "type":"string"
               },
               {
                  "name":"UseMock",
                  "in":"header",
                  "required":false,
                  "type":"boolean"
               },
               {
                  "name":"CorrelationId",
                  "in":"header",
                  "description":"Request tracking Id",
                  "required":false,
                  "type":"string"
               }
            ],
            "responses":{
               "200":{
                  "description":"Successfully updated the AccountStatus"
               },
               "400":{
                  "description":"The request sent by the client was syntactically incorrect, bad Request"
               },
               "500":{
                  "description":"OrderManagement internal error"
               },
               "502":{
                  "description":"Any Back-end related error, (time out, unknown errors from backend etc..) "
               },
               "404":{
                  "description":"Account not found"
               }
            }
         },
         "delete":{
            "tags":[
               "AccountManagement API's"
            ],
            "summary":"Delete Account  for the given AccountName",
            "description":"Sends a confirmation mail to a group for confirming the delete operation for the given AccountName",
            "operationId":"deleteAccount",
            "produces":[
               "application/json"
            ],
            "parameters":[
               {
                  "name":"AccountName",
                  "in":"header",
                  "description":"case insensitive",
                  "required":true,
                  "type":"string"
               },
               {
                  "name":"UseMock",
                  "in":"header",
                  "required":false,
                  "type":"boolean"
               }
            ],
            "responses":{
               "200":{
                  "description":"successful operation",
                  "schema":{
                     "$ref":"#/definitions/DeleteAccountResponse"
                  },
                  "headers":{
                     "CorrelationId":{
                        "type":"string",
                        "description":"Request tracking Id, the one which user provided as part of request header, if user not provided it will be some UUID"
                     }
                  }
               },
               "202":{
                  "description":"Delete Account Email Sent Successfully.",
                  "schema":{
                     "$ref":"#/definitions/DeleteAccountResponse"
                  }
               },
               "400":{
                  "description":"The request sent by the client was syntactically incorrect, bad Request"
               },
               "500":{
                  "description":"OrderManagement internal error"
               },
               "502":{
                  "description":"Any Back-end related error, (time out, unknown errors from backend etc..) "
               },
               "404":{
                  "description":"Account not found"
               }
            }
         }
      },
      "/v1/account/status":{
         "get":{
            "tags":[
               "AccountManagement API's"
            ],
            "summary":"Fetch AccountStatus for the given AccountName",
            "description":"Reads AccountStatus for the given AccountName in the response",
            "operationId":"readAccountStatus",
            "produces":[
               "application/json"
            ],
            "parameters":[
               {
                  "name":"AccountName",
                  "in":"header",
                  "description":"case insensitive",
                  "required":true,
                  "type":"string"
               },
               {
                  "name":"UseMock",
                  "in":"header",
                  "required":false,
                  "type":"boolean"
               },
               {
                  "name":"CorrelationId",
                  "in":"header",
                  "description":"Request tracking Id",
                  "required":false,
                  "type":"string"
               }
            ],
            "responses":{
               "200":{
                  "description":"Successful retrieval of AccountStatus",
                  "schema":{
                     "$ref":"#/definitions/AccountStatus"
                  }
               },
               "400":{
                  "description":"The request sent by the client was syntactically incorrect, bad Request"
               },
               "500":{
                  "description":"OrderManagement internal error"
               },
               "502":{
                  "description":"Any Back-end related error, (time out, unknown errors from backend etc..) "
               },
               "404":{
                  "description":"Account not found"
               }
            }
         }
      },
      "/v1/account/subAccount":{
         "get":{
            "tags":[
               "AccountManagement API's"
            ],
            "summary":"Fetch Account details for the given NetworkId",
            "description":"Reads Account with all the Seat information in the response",
            "operationId":"readAccountWithNetworkId",
            "produces":[
               "application/json"
            ],
            "parameters":[
               {
                  "name":"AccountName",
                  "in":"header",
                  "description":"case insensitive",
                  "required":true,
                  "type":"string"
               },
               {
                  "name":"NetworkId",
                  "in":"header",
                  "description":"case sensitive",
                  "required":true,
                  "type":"string"
               },
               {
                  "name":"UseMock",
                  "in":"header",
                  "required":false,
                  "type":"boolean"
               },
               {
                  "name":"CorrelationId",
                  "in":"header",
                  "description":"Request tracking Id",
                  "required":false,
                  "type":"string"
               }
            ],
            "responses":{
               "200":{
                  "description":"Successful retrieval of Account details",
                  "schema":{
                     "$ref":"#/definitions/Account"
                  }
               },
               "400":{
                  "description":"The request sent by the client was syntactically incorrect, bad Request"
               },
               "500":{
                  "description":"OrderManagement internal error"
               },
               "502":{
                  "description":"Any Back-end related error, (time out, unknown errors from backend etc..) "
               },
               "404":{
                  "description":"No data found for the given NetworkId or NetworkId not found for the given AccountName in the request"
               }
            }
         }
      },
      "/v1/networkId":{
         "get":{
            "tags":[
               "SeatManagement API's"
            ],
            "summary":"Fetch NetworkId for the given SeatId",
            "description":"Reads NetworkId for the given SeatId in the response",
            "operationId":"readNetworkId",
            "produces":[
               "application/json"
            ],
            "parameters":[
               {
                  "name":"AccountName",
                  "in":"header",
                  "description":"case insensitive",
                  "required":true,
                  "type":"string"
               },
               {
                  "name":"SeatId",
                  "in":"header",
                  "description":"case sensitive",
                  "required":true,
                  "type":"string"
               },
               {
                  "name":"UseMock",
                  "in":"header",
                  "required":false,
                  "type":"boolean"
               },
               {
                  "name":"CorrelationId",
                  "in":"header",
                  "description":"Request tracking Id",
                  "required":false,
                  "type":"string"
               }
            ],
            "responses":{
               "200":{
                  "description":"Successfully retrieval of the NetworkId",
                  "schema":{
                     "$ref":"#/definitions/ReadNetworkId"
                  }
               },
               "400":{
                  "description":"The request sent by the client was syntactically incorrect, bad Request"
               },
               "401":{
                  "description":"unauthorized"
               },
               "500":{
                  "description":"OrderManagement internal error"
               },
               "502":{
                  "description":"Any Back-end related error, (time out, unknown errors from backend etc..) "
               },
               "404":{
                  "description":"Seat not found"
               }
            }
         },
         "post":{
            "tags":[
               "SeatManagement API's"
            ],
            "summary":"Create NetworkId for the given SeatId",
            "description":"Creates NetworkId for the given SeatId",
            "operationId":"createNetworkId",
            "consumes":[
               "application/json",
               "application/xml"
            ],
            "produces":[
               "application/json"
            ],
            "parameters":[
               {
                  "in":"body",
                  "name":"body",
                  "required":false,
                  "schema":{
                     "$ref":"#/definitions/CreateNetworkId"
                  }
               },
               {
                  "name":"AccountName",
                  "in":"header",
                  "description":"case insensitive",
                  "required":true,
                  "type":"string"
               },
               {
                  "name":"SeatId",
                  "in":"header",
                  "description":"case sensitive",
                  "required":true,
                  "type":"string"
               },
               {
                  "name":"UseMock",
                  "in":"header",
                  "required":false,
                  "type":"boolean"
               },
               {
                  "name":"CorrelationId",
                  "in":"header",
                  "description":"Request tracking Id",
                  "required":false,
                  "type":"string"
               }
            ],
            "responses":{
               "200":{
                  "description":"Successfully created the NetworkId information"
               },
               "400":{
                  "description":"The request sent by the client was syntactically incorrect, bad Request"
               },
               "401":{
                  "description":"unauthorized"
               },
               "500":{
                  "description":"OrderManagement internal error"
               },
               "502":{
                  "description":"Any Back-end related error, (time out, unknown errors from backend etc..) "
               },
               "404":{
                  "description":"Seat not found"
               }
            }
         },
         "delete":{
            "tags":[
               "SeatManagement API's"
            ],
            "summary":"Delete NetworkId for the given SeatId",
            "description":"Deletes NetworkId for the given SeatId",
            "operationId":"deleteNetworkId",
            "produces":[
               "application/json"
            ],
            "parameters":[
               {
                  "name":"AccountName",
                  "in":"header",
                  "description":"case insensitive",
                  "required":false,
                  "type":"string"
               },
               {
                  "name":"NetworkId",
                  "in":"header",
                  "description":"case sensitive",
                  "required":true,
                  "type":"string"
               },
               {
                  "name":"SeatId",
                  "in":"header",
                  "description":"case sensitive",
                  "required":true,
                  "type":"string"
               },
               {
                  "name":"UseMock",
                  "in":"header",
                  "required":false,
                  "type":"boolean"
               },
               {
                  "name":"CorrelationId",
                  "in":"header",
                  "description":"Request tracking Id",
                  "required":false,
                  "type":"string"
               }
            ],
            "responses":{
               "200":{
                  "description":"Successfully deleted the NetworkId information"
               },
               "400":{
                  "description":"The request sent by the client was syntactically incorrect, bad Request"
               },
               "401":{
                  "description":"unauthorized"
               },
               "500":{
                  "description":"OrderManagement internal error"
               },
               "502":{
                  "description":"Any Back-end related error, (time out, unknown errors from backend etc..) "
               },
               "404":{
                  "description":"Seat not found"
               }
            }
         }
      },
      "/v1/releaseMoniker/{moniker}":{
         "delete":{
            "tags":[
               "SeatManagement API's"
            ],
            "summary":"Deletes the PublicUser for the Given Moniker(TN)",
            "description":"Deletes the Moniker(TN) from CloudRegistry for the given Moniker if the moniker is in assigned state",
            "operationId":"releaseMoniker",
            "produces":[
               "application/json"
            ],
            "parameters":[
               {
                  "name":"moniker",
                  "in":"path",
                  "description":"case insensitive",
                  "required":true,
                  "type":"string"
               },
               {
                  "name":"AccountName",
                  "in":"header",
                  "description":"case insensitive",
                  "required":false,
                  "type":"string"
               },
               {
                  "name":"NetworkId",
                  "in":"header",
                  "description":"case sensitive",
                  "required":false,
                  "type":"string"
               },
               {
                  "name":"SeatId",
                  "in":"header",
                  "description":"case sensitive",
                  "required":false,
                  "type":"string"
               },
               {
                  "name":"UseMock",
                  "in":"header",
                  "required":false,
                  "type":"boolean"
               },
               {
                  "name":"CorrelationId",
                  "in":"header",
                  "description":"Request tracking Id",
                  "required":false,
                  "type":"string"
               }
            ],
            "responses":{
               "200":{
                  "description":"Successfully deleted the Moniker(TN) from CloudRegistry for the given Moniker"
               },
               "400":{
                  "description":"The request sent by the client was syntactically incorrect, bad Request"
               },
               "401":{
                  "description":"unauthorized"
               },
               "500":{
                  "description":"OrderManagement internal error"
               },
               "502":{
                  "description":"Any Back-end related error, (time out, unknown errors from backend etc..) "
               },
               "404":{
                  "description":"Moniker not found in CloudRegistry"
               },
               "409":{
                  "description":"moniker conflict"
               }
            }
         }
      },
      "/v1/reserveMoniker":{
         "post":{
            "tags":[
               "SeatManagement API's"
            ],
            "summary":"Maps Moniker(TN) to the given SeatId",
            "description":"Maps Moniker(TN) to the given SeatId",
            "operationId":"reserveMoniker",
            "consumes":[
               "application/json",
               "application/xml"
            ],
            "produces":[
               "application/json"
            ],
            "parameters":[
               {
                  "in":"body",
                  "name":"body",
                  "required":false,
                  "schema":{
                     "$ref":"#/definitions/Moniker"
                  }
               },
               {
                  "name":"AccountName",
                  "in":"header",
                  "description":"case insensitive",
                  "required":false,
                  "type":"string"
               },
               {
                  "name":"NetworkId",
                  "in":"header",
                  "description":"case sensitive",
                  "required":false,
                  "type":"string"
               },
               {
                  "name":"SeatId",
                  "in":"header",
                  "description":"case sensitive",
                  "required":true,
                  "type":"string"
               },
               {
                  "name":"UseMock",
                  "in":"header",
                  "required":false,
                  "type":"boolean"
               },
               {
                  "name":"CorrelationId",
                  "in":"header",
                  "description":"Request tracking Id",
                  "required":false,
                  "type":"string"
               }
            ],
            "responses":{
               "200":{
                  "description":"Successfully map the Moniker with given seatId"
               },
               "400":{
                  "description":"The request sent by the client was syntactically incorrect, bad Request"
               },
               "401":{
                  "description":"unauthorized"
               },
               "500":{
                  "description":"OrderManagement internal error"
               },
               "502":{
                  "description":"Any Back-end related error, (time out, unknown errors from backend etc..) "
               },
               "404":{
                  "description":"Seat not found"
               },
               "409":{
                  "description":"moniker conflict"
               }
            }
         }
      },
      "/v1/seat":{
         "get":{
            "tags":[
               "SeatManagement API's"
            ],
            "summary":"Fetch Seat for the given SeatId",
            "description":"Reads Seat details for the given SeatId in the response",
            "operationId":"readSeat",
            "produces":[
               "application/json"
            ],
            "parameters":[
               {
                  "name":"AccountName",
                  "in":"header",
                  "description":"case insensitive",
                  "required":false,
                  "type":"string"
               },
               {
                  "name":"NetworkId",
                  "in":"header",
                  "description":"case sensitive",
                  "required":false,
                  "type":"string"
               },
               {
                  "name":"SeatId",
                  "in":"header",
                  "description":"case sensitive",
                  "required":true,
                  "type":"string"
               },
               {
                  "name":"UseMock",
                  "in":"header",
                  "required":false,
                  "type":"boolean"
               },
               {
                  "name":"CorrelationId",
                  "in":"header",
                  "description":"Request tracking Id",
                  "required":false,
                  "type":"string"
               }
            ],
            "responses":{
               "200":{
                  "description":"Successfully retrieval of the Seat information",
                  "schema":{
                     "$ref":"#/definitions/Seat"
                  }
               },
               "400":{
                  "description":"The request sent by the client was syntactically incorrect, bad Request"
               },
               "401":{
                  "description":"unauthorized"
               },
               "500":{
                  "description":"OrderManagement internal error"
               },
               "502":{
                  "description":"Any Back-end related error, (time out, unknown errors from backend etc..) "
               },
               "404":{
                  "description":"Seat not found"
               }
            }
         },
         "post":{
            "tags":[
               "SeatManagement API's"
            ],
            "summary":"Creates Seat for the given AccountName, Creates Account If Account not found",
            "description":"Creates complete Seat details under the given AccountName, Also creates Account with the given AccounName in the header if Account not found.",
            "operationId":"createSeat",
            "produces":[
               "application/json"
            ],
            "parameters":[
               {
                  "in":"body",
                  "name":"body",
                  "required":false,
                  "schema":{
                     "$ref":"#/definitions/CreateSeat"
                  }
               },
               {
                  "name":"AccountName",
                  "in":"header",
                  "description":"case insensitive",
                  "required":true,
                  "type":"string"
               },
               {
                  "name":"UseMock",
                  "in":"header",
                  "required":false,
                  "type":"boolean"
               },
               {
                  "name":"CorrelationId",
                  "in":"header",
                  "description":"Request tracking Id",
                  "required":false,
                  "type":"string"
               }
            ],
            "responses":{
               "200":{
                  "description":"successful operation",
                  "schema":{
                     "$ref":"#/definitions/CreateSeatResponse"
                  },
                  "headers":{
                     "CorrelationId":{
                        "type":"string",
                        "description":"Request tracking Id, the one which user provided as part of request header, if user not provided it will be some UUID"
                     }
                  }
               },
               "201":{
                  "description":"Successfully created the Seat information",
                  "schema":{
                     "$ref":"#/definitions/CreateSeatResponse"
                  }
               },
               "400":{
                  "description":"The request sent by the client was syntactically incorrect, bad Request"
               },
               "422":{
                  "description":"Unable to process the request "
               },
               "500":{
                  "description":"OrderManagement internal error"
               },
               "502":{
                  "description":"Any Back-end related error, (time out, unknown errors from backend etc..) "
               }
            }
         },
         "put":{
            "tags":[
               "SeatManagement API's"
            ],
            "summary":"Update Seat for the given SeatId",
            "description":"Updates Seat details for the given SeatId",
            "operationId":"updateSeat",
            "consumes":[
               "application/json",
               "application/xml"
            ],
            "produces":[
               "application/json"
            ],
            "parameters":[
               {
                  "in":"body",
                  "name":"body",
                  "required":false,
                  "schema":{
                     "$ref":"#/definitions/UpdateSeat"
                  }
               },
               {
                  "name":"AccountName",
                  "in":"header",
                  "description":"case insensitive",
                  "required":false,
                  "type":"string"
               },
               {
                  "name":"NetworkId",
                  "in":"header",
                  "description":"case sensitive",
                  "required":false,
                  "type":"string"
               },
               {
                  "name":"SeatId",
                  "in":"header",
                  "description":"case sensitive",
                  "required":true,
                  "type":"string"
               },
               {
                  "name":"UseMock",
                  "in":"header",
                  "required":false,
                  "type":"boolean"
               },
               {
                  "name":"CorrelationId",
                  "in":"header",
                  "description":"Request tracking Id",
                  "required":false,
                  "type":"string"
               }
            ],
            "responses":{
               "200":{
                  "description":"Successfully updated the Seat information"
               },
               "400":{
                  "description":"The request sent by the client was syntactically incorrect, bad Request"
               },
               "422":{
                  "description":"Unable to process the request "
               },
               "401":{
                  "description":"unauthorized"
               },
               "500":{
                  "description":"OrderManagement internal error"
               },
               "502":{
                  "description":"Any Back-end related error, (time out, unknown errors from backend etc..) "
               },
               "404":{
                  "description":"Seat not found"
               }
            }
         },
         "delete":{
            "tags":[
               "SeatManagement API's"
            ],
            "summary":"Delete Seat for the given AccountName and SeatId",
            "description":"Deletes Seat details for the given AccountName and SeatId, where AaccountName is optional",
            "operationId":"deleteSeat",
            "produces":[
               "application/json"
            ],
            "parameters":[
               {
                  "name":"AccountName",
                  "in":"header",
                  "description":"case insensitive",
                  "required":false,
                  "type":"string"
               },
               {
                  "name":"NetworkId",
                  "in":"header",
                  "description":"case sensitive",
                  "required":false,
                  "type":"string"
               },
               {
                  "name":"SeatId",
                  "in":"header",
                  "description":"case sensitive",
                  "required":true,
                  "type":"string"
               },
               {
                  "name":"UseMock",
                  "in":"header",
                  "required":false,
                  "type":"boolean"
               },
               {
                  "name":"CorrelationId",
                  "in":"header",
                  "description":"Request tracking Id",
                  "required":false,
                  "type":"string"
               }
            ],
            "responses":{
               "200":{
                  "description":"Successfully deleted the Seat information"
               },
               "400":{
                  "description":"The request sent by the client was syntactically incorrect, bad Request"
               },
               "422":{
                  "description":"Unable to process the request "
               },
               "401":{
                  "description":"unauthorized"
               },
               "500":{
                  "description":"OrderManagement internal error"
               },
               "502":{
                  "description":"Any Back-end related error, (time out, unknown errors from backend etc..) "
               },
               "404":{
                  "description":"Seat not found"
               },
               "409":{
                  "description":"SeatId exists under a different Account"
               }
            }
         }
      },
      "/v1/seat/{publicUserId}":{
         "get":{
            "tags":[
               "SeatManagement API's"
            ],
            "summary":"Fetch Seat ids for the given public user id",
            "description":"Reads Seat ids for the given public user id in the response",
            "operationId":"processReadSeatIdWithPublicUser",
            "produces":[
               "application/json"
            ],
            "parameters":[
               {
                  "name":"publicUserId",
                  "in":"path",
                  "description":"case insensitive",
                  "required":true,
                  "type":"string"
               },
               {
                  "name":"AccountName",
                  "in":"header",
                  "description":"case insensitive",
                  "required":false,
                  "type":"string"
               },
               {
                  "name":"NetworkId",
                  "in":"header",
                  "description":"case sensitive",
                  "required":false,
                  "type":"string"
               },
               {
                  "name":"UseMock",
                  "in":"header",
                  "required":false,
                  "type":"boolean"
               },
               {
                  "name":"CorrelationId",
                  "in":"header",
                  "description":"Request tracking Id",
                  "required":false,
                  "type":"string"
               }
            ],
            "responses":{
               "200":{
                  "description":"Successfully retrieval of the Seat Id",
                  "schema":{
                     "$ref":"#/definitions/Seat"
                  }
               },
               "400":{
                  "description":"The request sent by the client was syntactically incorrect, bad Request"
               },
               "401":{
                  "description":"unauthorized"
               },
               "500":{
                  "description":"OrderManagement internal error"
               },
               "502":{
                  "description":"Any Back-end related error, (time out, unknown errors from backend etc..) "
               },
               "404":{
                  "description":"Seat Id not found"
               }
            }
         }
      }
   },
   "definitions":{
      "Account":{
         "type":"object",
         "properties":{
            "accountName":{
               "type":"string"
            },
            "accountStatus":{
               "type":"string"
            },
            "seats":{
               "type":"array",
               "items":{
                  "$ref":"#/definitions/Seat"
               }
            }
         }
      },
      "AccountStatus":{
         "type":"object",
         "properties":{
            "accountStatus":{
               "type":"string",
               "enum":[
                  "active",
                  "suspended"
               ]
            }
         }
      },
      "Seat":{
         "type":"object",
         "properties":{
            "seatId":{
               "type":"string"
            },
            "customerId":{
               "type":"string"
            },
            "moniker":{
               "type":"string"
            },
            "networkId":{
               "type":"array",
               "items":{
                  "type":"string"
               }
            },
            "productName":{
               "type":"string"
            },
            "seatStatus":{
               "type":"string"
            },
            "legalAckValue":{
               "type":"string"
            },
            "legalAckStatus":{
               "type":"boolean",
               "default":false
            }
         }
      },
      "Moniker":{
         "type":"object",
         "properties":{
            "moniker":{
               "type":"string"
            },
            "monikerType":{
               "type":"string"
            },
            "monikerStatus":{
               "type":"string"
            }
         }
      },
      "UpdateSeat":{
         "type":"object",
         "properties":{
            "customerId":{
               "type":"string"
            },
            "legalAckValue":{
               "type":"string"
            },
            "legalAckStatus":{
               "type":"boolean",
               "default":false
            }
         }
      },
      "DeleteAccountResponse":{
         "type":"object",
         "properties":{
            "message":{
               "type":"string"
            }
         }
      },
      "ReadNetworkId":{
         "type":"object",
         "properties":{
            "networkId":{
               "type":"array",
               "items":{
                  "type":"string"
               }
            }
         }
      },
      "CreateSeatResponse":{
         "type":"object",
         "properties":{
            "seatId":{
               "type":"string"
            }
         }
      },
      "CreateSeat":{
         "type":"object",
         "properties":{
            "customerId":{
               "type":"string"
            },
            "productName":{
               "type":"string"
            },
            "legalAckValue":{
               "type":"string"
            },
            "legalAckStatus":{
               "type":"boolean",
               "default":false
            }
         }
      },
      "CreateNetworkId":{
         "type":"object",
         "properties":{
            "networkId":{
               "type":"array",
               "items":{
                  "type":"string"
               }
            }
         }
      }
   }
}