{
    "PageId": "Pricing",
    "Language": "English",
    "Version": "0001",
    "title": "Pricing",
    "description": "View pricing for various products",
    "serviceLabel":"Service",
    "chargesLabel":"Charges",
    "seatTextLabel":"Seat Management Fee",
    "phoneNumberRentalLabel":"Phone Number Rental",
    "domesticSMSLabel":"National SMS destinations",
    "internationalSMSLabel":"International SMS destinations",
    "otherInternationalSMSLabel":"Other International SMS",
    "MessageSafeStore200MbLabel":"200Mb Message Safe-store",
    "MessageSafeSstoreplus10GbLabel":" Message Safe-store",
    "backToPricingLabel":"Back to Pricing",
    "internationalSMSLabel":"International SMS Charges",
    "ListOfInternationalDestinationsMessage":"for a list of international destination charges.",
    "codeLabel":"Code",
    "nameLabel":"Name",
    "clickHereLabel":"Click here",
    "chargeLabel":"Charge in USD"    
}